[{"id":1,"fecha":"12/19/2017","importe":41.15,"latitud":32.061895,"longitud":102.990108},
{"id":2,"fecha":"10/04/2017","importe":89.92,"latitud":10.7521356,"longitud":122.5306125},
{"id":3,"fecha":"02/16/2017","importe":11.05,"latitud":30.157633,"longitud":103.49824},
{"id":4,"fecha":"03/18/2017","importe":77.98,"latitud":-33.0153481,"longitud":-71.5500276},
{"id":5,"fecha":"04/09/2017","importe":43.25,"latitud":35.490701,"longitud":112.851831},
{"id":6,"fecha":"07/26/2017","importe":47.24,"latitud":-1.5105199,"longitud":101.2750531},
{"id":7,"fecha":"01/27/2017","importe":98.39,"latitud":27.8122083,"longitud":52.350694},
{"id":8,"fecha":"07/07/2017","importe":13.8,"latitud":38.4415297,"longitud":23.6824627},
{"id":9,"fecha":"10/27/2017","importe":28.39,"latitud":42.0070624,"longitud":24.4410972},
{"id":10,"fecha":"04/01/2017","importe":58.3,"latitud":40.3034691,"longitud":44.3930377},
{"id":11,"fecha":"12/12/2017","importe":97.17,"latitud":39.2022108,"longitud":-9.3297345},
{"id":12,"fecha":"10/13/2017","importe":54.29,"latitud":-22.602558,"longitud":-43.9055155},
{"id":13,"fecha":"03/04/2017","importe":61.18,"latitud":52.020802,"longitud":85.908397},
{"id":14,"fecha":"08/14/2017","importe":79.16,"latitud":44.774428,"longitud":19.5121851},
{"id":15,"fecha":"08/10/2017","importe":17.47,"latitud":-6.6355378,"longitud":106.8490872},
{"id":16,"fecha":"01/31/2017","importe":44.61,"latitud":56.450936,"longitud":23.353057},
{"id":17,"fecha":"06/06/2017","importe":63.88,"latitud":12.6679167,"longitud":123.9881642},
{"id":18,"fecha":"03/26/2017","importe":60.02,"latitud":33.9548846,"longitud":-118.0273914},
{"id":19,"fecha":"12/26/2017","importe":89.93,"latitud":41.3193419,"longitud":-8.2091148},
{"id":20,"fecha":"08/20/2017","importe":47.64,"latitud":14.4432287,"longitud":108.9918254},
{"id":21,"fecha":"05/23/2017","importe":50.37,"latitud":-34.3486042,"longitud":-56.7075141},
{"id":22,"fecha":"03/20/2017","importe":52.86,"latitud":-7.1520459,"longitud":108.5196028},
{"id":23,"fecha":"11/19/2017","importe":7.52,"latitud":34.269432,"longitud":118.625848},
{"id":24,"fecha":"12/31/2017","importe":52.78,"latitud":15.6941944,"longitud":121.1004925},
{"id":25,"fecha":"04/12/2017","importe":33.05,"latitud":-6.4712737,"longitud":110.8171082},
{"id":26,"fecha":"12/07/2017","importe":75.46,"latitud":31.017497,"longitud":121.309354},
{"id":27,"fecha":"06/20/2017","importe":61.64,"latitud":26.12715,"longitud":113.116527},
{"id":28,"fecha":"05/11/2017","importe":17.58,"latitud":49.7392784,"longitud":19.8619324},
{"id":29,"fecha":"11/24/2017","importe":9.29,"latitud":10.142762,"longitud":-85.454983},
{"id":30,"fecha":"05/14/2017","importe":12.87,"latitud":25.9755686,"longitud":89.6367458},
{"id":31,"fecha":"12/05/2017","importe":40.24,"latitud":-5.5844754,"longitud":105.4771084},
{"id":32,"fecha":"09/30/2017","importe":75.05,"latitud":30.600064,"longitud":114.309091},
{"id":33,"fecha":"04/01/2017","importe":65.84,"latitud":-34.6156429,"longitud":-58.4176515},
{"id":34,"fecha":"01/22/2017","importe":21.95,"latitud":50.1559431,"longitud":14.1889828},
{"id":35,"fecha":"06/16/2017","importe":87.1,"latitud":38.3341493,"longitud":-8.0038406},
{"id":36,"fecha":"08/01/2017","importe":61.37,"latitud":49.7392784,"longitud":19.8619324},
{"id":37,"fecha":"05/24/2017","importe":45.18,"latitud":43.5958543,"longitud":5.1190026},
{"id":38,"fecha":"03/16/2017","importe":93.89,"latitud":14.5874782,"longitud":-88.5831026},
{"id":39,"fecha":"10/01/2017","importe":51.15,"latitud":35.4889372,"longitud":139.3909552},
{"id":40,"fecha":"11/20/2017","importe":29.84,"latitud":35.4885986,"longitud":10.9882593},
{"id":41,"fecha":"03/06/2017","importe":58.24,"latitud":-8.4358333,"longitud":119.9916667},
{"id":42,"fecha":"01/05/2018","importe":84.04,"latitud":38.4677243,"longitud":-28.5112113},
{"id":43,"fecha":"02/02/2017","importe":8.96,"latitud":46.9063815,"longitud":102.7636515},
{"id":44,"fecha":"01/27/2017","importe":13.17,"latitud":-2.688962,"longitud":111.622398},
{"id":45,"fecha":"10/13/2017","importe":94.66,"latitud":-7.8082295,"longitud":113.0905501},
{"id":46,"fecha":"08/08/2017","importe":28.25,"latitud":40.1929685,"longitud":-74.6502902},
{"id":47,"fecha":"02/02/2017","importe":90.1,"latitud":39.6242621,"longitud":19.9216777},
{"id":48,"fecha":"07/30/2017","importe":3.4,"latitud":-20.7371116,"longitud":-48.9110606},
{"id":49,"fecha":"12/02/2017","importe":13.4,"latitud":-6.3783847,"longitud":-41.8004409},
{"id":50,"fecha":"08/02/2017","importe":73.5,"latitud":37.106326,"longitud":-8.4723108},
{"id":51,"fecha":"11/05/2017","importe":91.73,"latitud":39.0277832,"longitud":-94.6557914},
{"id":52,"fecha":"04/03/2017","importe":5.69,"latitud":14.0285468,"longitud":120.7181027},
{"id":53,"fecha":"10/05/2017","importe":92.87,"latitud":-6.8089753,"longitud":106.493598},
{"id":54,"fecha":"01/22/2017","importe":66.04,"latitud":"48.63333","longitud":"106.73333"},
{"id":55,"fecha":"01/05/2018","importe":52.35,"latitud":27.568278,"longitud":117.562238},
{"id":56,"fecha":"09/16/2017","importe":14.27,"latitud":30.221809,"longitud":121.399164},
{"id":57,"fecha":"07/01/2017","importe":12.15,"latitud":-23.6515085,"longitud":-46.8521864},
{"id":58,"fecha":"11/26/2017","importe":44.58,"latitud":11.5484585,"longitud":8.8583309},
{"id":59,"fecha":"02/09/2017","importe":53.95,"latitud":57.6699268,"longitud":15.8538205},
{"id":60,"fecha":"04/20/2017","importe":39.6,"latitud":"-8.6431","longitud":"120.0041"},
{"id":61,"fecha":"05/04/2017","importe":76.64,"latitud":"35.23619","longitud":"-3.95453"},
{"id":62,"fecha":"11/26/2017","importe":44.17,"latitud":52.2795871,"longitud":104.3213093},
{"id":63,"fecha":"12/09/2017","importe":62.78,"latitud":30.5651672,"longitud":31.1578769},
{"id":64,"fecha":"07/26/2017","importe":90.61,"latitud":2.7239834,"longitud":101.9476452},
{"id":65,"fecha":"10/14/2017","importe":4.19,"latitud":51.0720479,"longitud":16.881153},
{"id":66,"fecha":"04/12/2017","importe":58.71,"latitud":-7.2132018,"longitud":113.4210537},
{"id":67,"fecha":"02/09/2017","importe":45.5,"latitud":-19.6499319,"longitud":-45.2243578},
{"id":68,"fecha":"05/20/2017","importe":26.05,"latitud":-29.501873,"longitud":-51.9640632},
{"id":69,"fecha":"02/20/2017","importe":78.22,"latitud":6.6802044,"longitud":101.4112049},
{"id":70,"fecha":"05/01/2017","importe":21.54,"latitud":22.719257,"longitud":114.055261},
{"id":71,"fecha":"01/28/2017","importe":24.72,"latitud":-0.0632715,"longitud":32.0837445},
{"id":72,"fecha":"02/16/2017","importe":72.09,"latitud":-7.9110809,"longitud":111.4253892},
{"id":73,"fecha":"09/22/2017","importe":76.86,"latitud":6.691667,"longitud":143.041667},
{"id":74,"fecha":"05/27/2017","importe":40.29,"latitud":21.955472,"longitud":111.244529},
{"id":75,"fecha":"04/30/2017","importe":13.33,"latitud":50.2135674,"longitud":18.5396797},
{"id":76,"fecha":"12/16/2017","importe":32.67,"latitud":44.3710708,"longitud":-64.5210039},
{"id":77,"fecha":"01/07/2018","importe":50.84,"latitud":54.7599431,"longitud":20.1021063},
{"id":78,"fecha":"12/12/2017","importe":64.62,"latitud":-29.251895,"longitud":18.841117},
{"id":79,"fecha":"12/30/2017","importe":46.63,"latitud":22.814304,"longitud":115.955191},
{"id":80,"fecha":"03/04/2017","importe":28.03,"latitud":"47.09995","longitud":"-55.76504"},
{"id":81,"fecha":"05/17/2017","importe":22.14,"latitud":15.0712647,"longitud":39.0450242},
{"id":82,"fecha":"08/08/2017","importe":59.31,"latitud":10.0016057,"longitud":123.4091052},
{"id":83,"fecha":"12/27/2017","importe":90.56,"latitud":46.4846074,"longitud":-1.7557702},
{"id":84,"fecha":"02/24/2017","importe":47.0,"latitud":38.3237571,"longitud":-108.1821561},
{"id":85,"fecha":"10/28/2017","importe":32.48,"latitud":14.3348056,"longitud":108.4750846},
{"id":86,"fecha":"06/02/2017","importe":57.76,"latitud":35.950418,"longitud":101.925248},
{"id":87,"fecha":"08/15/2017","importe":19.95,"latitud":17.9309007,"longitud":103.1279039},
{"id":88,"fecha":"07/20/2017","importe":79.18,"latitud":"14.5748","longitud":"33.3373"},
{"id":89,"fecha":"03/19/2017","importe":59.33,"latitud":14.7976183,"longitud":45.7189412},
{"id":90,"fecha":"09/08/2017","importe":69.54,"latitud":0.0511839,"longitud":32.463708},
{"id":91,"fecha":"01/12/2017","importe":19.08,"latitud":-34.5332237,"longitud":-58.5074331},
{"id":92,"fecha":"01/22/2017","importe":71.17,"latitud":32.235967,"longitud":110.227954},
{"id":93,"fecha":"08/26/2017","importe":91.77,"latitud":26.312444,"longitud":99.850365},
{"id":94,"fecha":"03/29/2017","importe":10.73,"latitud":50.6793242,"longitud":3.2510427},
{"id":95,"fecha":"06/17/2017","importe":62.11,"latitud":40.6098385,"longitud":20.6898971},
{"id":96,"fecha":"05/31/2017","importe":81.7,"latitud":14.5155311,"longitud":120.9812921},
{"id":97,"fecha":"03/20/2017","importe":4.81,"latitud":10.381909,"longitud":104.4901728},
{"id":98,"fecha":"05/23/2017","importe":37.66,"latitud":-6.4146234,"longitud":107.5593913},
{"id":99,"fecha":"04/07/2017","importe":45.04,"latitud":-6.9481585,"longitud":107.5927},
{"id":100,"fecha":"11/11/2017","importe":91.53,"latitud":46.019373,"longitud":15.4759099},
{"id":101,"fecha":"05/27/2017","importe":1.2,"latitud":41.5399755,"longitud":-72.9934468},
{"id":102,"fecha":"01/12/2017","importe":30.45,"latitud":54.0188307,"longitud":31.7244374},
{"id":103,"fecha":"06/12/2017","importe":70.73,"latitud":40.0672874,"longitud":20.1045229},
{"id":104,"fecha":"01/23/2017","importe":84.5,"latitud":10.2183336,"longitud":2.6660901},
{"id":105,"fecha":"07/17/2017","importe":18.44,"latitud":58.3505986,"longitud":11.9490108},
{"id":106,"fecha":"07/07/2017","importe":71.23,"latitud":19.4052965,"longitud":-99.1504583},
{"id":107,"fecha":"12/03/2017","importe":85.69,"latitud":-34.6381227,"longitud":-58.3787726},
{"id":108,"fecha":"01/18/2017","importe":92.34,"latitud":56.3089225,"longitud":22.2987465},
{"id":109,"fecha":"11/22/2017","importe":73.57,"latitud":-13.7720906,"longitud":-172.3899338},
{"id":110,"fecha":"12/29/2017","importe":75.81,"latitud":-8.781999,"longitud":36.3608819},
{"id":111,"fecha":"03/10/2017","importe":94.1,"latitud":25.525292,"longitud":108.260701},
{"id":112,"fecha":"03/05/2017","importe":26.23,"latitud":39.9912749,"longitud":116.4717334},
{"id":113,"fecha":"02/06/2017","importe":56.09,"latitud":-8.2451851,"longitud":114.9724513},
{"id":114,"fecha":"11/07/2017","importe":32.84,"latitud":-1.7505747,"longitud":116.0886704},
{"id":115,"fecha":"06/15/2017","importe":18.39,"latitud":24.9663939,"longitud":102.6354187},
{"id":116,"fecha":"02/28/2017","importe":64.51,"latitud":5.4745106,"longitud":-3.2030756},
{"id":117,"fecha":"09/21/2017","importe":1.59,"latitud":58.0498372,"longitud":11.8515576},
{"id":118,"fecha":"08/12/2017","importe":57.87,"latitud":3.991663,"longitud":-73.766129},
{"id":119,"fecha":"04/07/2017","importe":7.63,"latitud":63.7435338,"longitud":53.7021347},
{"id":120,"fecha":"10/13/2017","importe":1.29,"latitud":15.2307976,"longitud":-87.9653335},
{"id":121,"fecha":"06/29/2017","importe":94.71,"latitud":28.5776106,"longitud":81.6254283},
{"id":122,"fecha":"01/29/2017","importe":27.66,"latitud":53.719155,"longitud":-6.3422325},
{"id":123,"fecha":"01/04/2018","importe":96.16,"latitud":27.519549,"longitud":114.073416},
{"id":124,"fecha":"09/04/2017","importe":7.4,"latitud":-6.160726,"longitud":106.915202},
{"id":125,"fecha":"12/10/2017","importe":30.67,"latitud":2.0469343,"longitud":45.3181623},
{"id":126,"fecha":"12/18/2017","importe":55.96,"latitud":35.1148773,"longitud":33.1435877},
{"id":127,"fecha":"06/08/2017","importe":18.58,"latitud":14.5694485,"longitud":121.1877062},
{"id":128,"fecha":"12/14/2017","importe":4.74,"latitud":-7.5180957,"longitud":108.6442835},
{"id":129,"fecha":"03/08/2017","importe":79.1,"latitud":38.26,"longitud":-85.75},
{"id":130,"fecha":"02/20/2017","importe":95.46,"latitud":53.3806398,"longitud":-6.5028415},
{"id":131,"fecha":"09/01/2017","importe":9.82,"latitud":41.393981,"longitud":2.1633946},
{"id":132,"fecha":"05/29/2017","importe":62.42,"latitud":45.2544588,"longitud":5.7043997},
{"id":133,"fecha":"02/10/2017","importe":63.45,"latitud":10.0016057,"longitud":123.4091052},
{"id":134,"fecha":"06/22/2017","importe":30.32,"latitud":30.224471,"longitud":118.511306},
{"id":135,"fecha":"07/25/2017","importe":74.0,"latitud":-25.2855091,"longitud":-57.1746259},
{"id":136,"fecha":"04/28/2017","importe":74.0,"latitud":50.2837307,"longitud":2.7425682},
{"id":137,"fecha":"04/13/2017","importe":64.1,"latitud":36.6512,"longitud":117.120095},
{"id":138,"fecha":"10/26/2017","importe":44.36,"latitud":"-1.68333","longitud":"33.7"},
{"id":139,"fecha":"06/02/2017","importe":76.66,"latitud":44.1748191,"longitud":17.6634251},
{"id":140,"fecha":"10/19/2017","importe":17.67,"latitud":33.387684,"longitud":114.021538},
{"id":141,"fecha":"09/30/2017","importe":92.57,"latitud":37.114157,"longitud":79.922211},
{"id":142,"fecha":"07/10/2017","importe":68.22,"latitud":54.2395971,"longitud":29.6623761},
{"id":143,"fecha":"09/03/2017","importe":44.01,"latitud":40.076762,"longitud":113.300129},
{"id":144,"fecha":"09/01/2017","importe":53.33,"latitud":26.6679155,"longitud":105.7676313},
{"id":145,"fecha":"09/27/2017","importe":49.05,"latitud":37.5910109,"longitud":70.5577283},
{"id":146,"fecha":"01/09/2018","importe":96.14,"latitud":21.17016,"longitud":110.084068},
{"id":147,"fecha":"04/07/2017","importe":58.56,"latitud":18.9753413,"longitud":-97.9041394},
{"id":148,"fecha":"10/03/2017","importe":19.41,"latitud":50.2642858,"longitud":13.5453919},
{"id":149,"fecha":"06/24/2017","importe":35.13,"latitud":40.5077508,"longitud":-7.9582238},
{"id":150,"fecha":"12/31/2017","importe":90.61,"latitud":-34.7117766,"longitud":-55.963705},
{"id":151,"fecha":"12/25/2017","importe":46.82,"latitud":-9.0166555,"longitud":-77.8724575},
{"id":152,"fecha":"08/25/2017","importe":38.92,"latitud":52.6958598,"longitud":41.4284466},
{"id":153,"fecha":"02/20/2017","importe":76.71,"latitud":-28.6454883,"longitud":-53.605355},
{"id":154,"fecha":"03/22/2017","importe":10.96,"latitud":23.354091,"longitud":116.681972},
{"id":155,"fecha":"03/15/2017","importe":85.24,"latitud":31.7659313,"longitud":120.2951156},
{"id":156,"fecha":"09/04/2017","importe":67.75,"latitud":36.2861677,"longitud":37.1097748},
{"id":157,"fecha":"11/19/2017","importe":29.24,"latitud":-13.608056,"longitud":-73.343889},
{"id":158,"fecha":"11/28/2017","importe":94.72,"latitud":49.145018,"longitud":1.0859715},
{"id":159,"fecha":"12/09/2017","importe":61.74,"latitud":38.0222208,"longitud":23.7851957},
{"id":160,"fecha":"01/04/2018","importe":8.06,"latitud":16.9672048,"longitud":42.8285605},
{"id":161,"fecha":"02/03/2017","importe":80.51,"latitud":-27.451456,"longitud":-59.029959},
{"id":162,"fecha":"08/02/2017","importe":80.37,"latitud":"-10.7246","longitud":"123.0979"},
{"id":163,"fecha":"12/24/2017","importe":54.9,"latitud":32.837949,"longitud":35.399996},
{"id":164,"fecha":"05/10/2017","importe":94.27,"latitud":"42.92952","longitud":"59.78199"},
{"id":165,"fecha":"08/13/2017","importe":80.73,"latitud":40.137963,"longitud":-7.5010773},
{"id":166,"fecha":"06/11/2017","importe":94.0,"latitud":49.9851242,"longitud":19.3263098},
{"id":167,"fecha":"08/08/2017","importe":74.09,"latitud":57.7123057,"longitud":14.3117654},
{"id":168,"fecha":"03/28/2017","importe":74.0,"latitud":37.9414132,"longitud":-77.3472943},
{"id":169,"fecha":"04/16/2017","importe":14.58,"latitud":53.3829319,"longitud":-6.266734},
{"id":170,"fecha":"10/14/2017","importe":32.38,"latitud":59.615642,"longitud":30.1696437},
{"id":171,"fecha":"02/19/2017","importe":98.04,"latitud":-0.3372032,"longitud":103.3702811},
{"id":172,"fecha":"12/07/2017","importe":21.37,"latitud":41.8499561,"longitud":-87.650042},
{"id":173,"fecha":"09/23/2017","importe":8.44,"latitud":5.3523231,"longitud":100.3573891},
{"id":174,"fecha":"12/28/2017","importe":86.41,"latitud":33.8639888,"longitud":48.2642387},
{"id":175,"fecha":"09/11/2017","importe":27.61,"latitud":9.9578348,"longitud":124.1789637},
{"id":176,"fecha":"06/25/2017","importe":26.88,"latitud":37.165779,"longitud":136.7095801},
{"id":177,"fecha":"07/25/2017","importe":13.07,"latitud":40.9981633,"longitud":47.8699826},
{"id":178,"fecha":"05/06/2017","importe":31.74,"latitud":-9.3095648,"longitud":32.7689479},
{"id":179,"fecha":"04/08/2017","importe":48.46,"latitud":61.1699194,"longitud":33.0828972},
{"id":180,"fecha":"05/03/2017","importe":92.69,"latitud":32.497877,"longitud":119.975728},
{"id":181,"fecha":"02/21/2017","importe":4.19,"latitud":1.683061,"longitud":-77.072933},
{"id":182,"fecha":"09/22/2017","importe":82.73,"latitud":32.147679,"longitud":114.091192},
{"id":183,"fecha":"01/16/2017","importe":20.04,"latitud":5.1227373,"longitud":9.9520961},
{"id":184,"fecha":"06/10/2017","importe":43.24,"latitud":29.099294,"longitud":119.692696},
{"id":185,"fecha":"07/03/2017","importe":40.97,"latitud":31.352859,"longitud":118.432941},
{"id":186,"fecha":"02/22/2017","importe":83.42,"latitud":-3.1703446,"longitud":139.0817124},
{"id":187,"fecha":"08/26/2017","importe":82.71,"latitud":39.1822152,"longitud":-84.4225186},
{"id":188,"fecha":"01/27/2017","importe":58.94,"latitud":4.5827227,"longitud":-74.2117465},
{"id":189,"fecha":"03/17/2017","importe":46.86,"latitud":49.5094313,"longitud":16.7705984},
{"id":190,"fecha":"09/23/2017","importe":90.04,"latitud":55.0449125,"longitud":67.8812063},
{"id":191,"fecha":"06/04/2017","importe":90.1,"latitud":50.4808616,"longitud":18.7351846},
{"id":192,"fecha":"11/26/2017","importe":2.61,"latitud":35.2866986,"longitud":36.7415432},
{"id":193,"fecha":"05/09/2017","importe":90.27,"latitud":47.7820865,"longitud":27.930686},
{"id":194,"fecha":"05/01/2017","importe":12.91,"latitud":53.7253057,"longitud":78.0495272},
{"id":195,"fecha":"01/22/2017","importe":30.13,"latitud":-18.4943258,"longitud":-40.4657826},
{"id":196,"fecha":"06/18/2017","importe":10.5,"latitud":-6.4306844,"longitud":106.7175669},
{"id":197,"fecha":"07/26/2017","importe":72.41,"latitud":4.1175121,"longitud":117.8663075},
{"id":198,"fecha":"08/13/2017","importe":37.45,"latitud":59.0031146,"longitud":12.2093266},
{"id":199,"fecha":"07/10/2017","importe":10.0,"latitud":36.3573462,"longitud":25.4459308},
{"id":200,"fecha":"07/05/2017","importe":74.77,"latitud":30.679359,"longitud":104.011664},
{"id":201,"fecha":"06/29/2017","importe":29.61,"latitud":5.614775,"longitud":-73.819571},
{"id":202,"fecha":"03/03/2017","importe":83.31,"latitud":51.6991519,"longitud":5.2583334},
{"id":203,"fecha":"08/28/2017","importe":45.66,"latitud":-34.6057351,"longitud":-58.4882729},
{"id":204,"fecha":"07/18/2017","importe":88.1,"latitud":-8.7609571,"longitud":121.2168466},
{"id":205,"fecha":"10/31/2017","importe":74.4,"latitud":30.334768,"longitud":106.93038},
{"id":206,"fecha":"09/19/2017","importe":12.68,"latitud":14.5939093,"longitud":-90.7533601},
{"id":207,"fecha":"03/25/2017","importe":27.26,"latitud":43.357629,"longitud":52.8434912},
{"id":208,"fecha":"08/30/2017","importe":45.87,"latitud":13.2570942,"longitud":-61.125756},
{"id":209,"fecha":"04/28/2017","importe":71.52,"latitud":"54.70375","longitud":"99.63042"},
{"id":210,"fecha":"04/29/2017","importe":49.62,"latitud":25.45872,"longitud":119.116289},
{"id":211,"fecha":"06/17/2017","importe":77.72,"latitud":27.829795,"longitud":112.944026},
{"id":212,"fecha":"10/30/2017","importe":54.01,"latitud":31.364902,"longitud":108.249509},
{"id":213,"fecha":"01/26/2017","importe":31.14,"latitud":13.1870854,"longitud":123.4572574},
{"id":214,"fecha":"03/29/2017","importe":32.71,"latitud":26.7255231,"longitud":128.1765722},
{"id":215,"fecha":"01/17/2017","importe":64.7,"latitud":22.825065,"longitud":100.966512},
{"id":216,"fecha":"09/09/2017","importe":81.65,"latitud":43.4945737,"longitud":5.8978018},
{"id":217,"fecha":"08/31/2017","importe":3.08,"latitud":38.0918397,"longitud":-8.0480529},
{"id":218,"fecha":"01/03/2018","importe":55.4,"latitud":49.9833529,"longitud":22.411607},
{"id":219,"fecha":"03/12/2017","importe":38.45,"latitud":41.6,"longitud":-93.61},
{"id":220,"fecha":"03/26/2017","importe":44.91,"latitud":-26.8039789,"longitud":-48.6489134},
{"id":221,"fecha":"05/23/2017","importe":54.81,"latitud":50.2227764,"longitud":30.903976},
{"id":222,"fecha":"02/13/2017","importe":51.34,"latitud":"46.73336","longitud":"-72.56581"},
{"id":223,"fecha":"05/21/2017","importe":27.51,"latitud":57.7190929,"longitud":14.1817062},
{"id":224,"fecha":"11/06/2017","importe":39.06,"latitud":35.1844489,"longitud":136.7959808},
{"id":225,"fecha":"07/23/2017","importe":11.44,"latitud":48.550372,"longitud":24.7466678},
{"id":226,"fecha":"03/24/2017","importe":54.31,"latitud":46.186211,"longitud":5.916694},
{"id":227,"fecha":"12/15/2017","importe":94.52,"latitud":-7.0631844,"longitud":107.7843483},
{"id":228,"fecha":"10/25/2017","importe":21.45,"latitud":49.9287189,"longitud":15.4598339},
{"id":229,"fecha":"04/07/2017","importe":26.33,"latitud":6.343847,"longitud":-72.814792},
{"id":230,"fecha":"01/14/2017","importe":52.02,"latitud":47.2990712,"longitud":-1.5086685},
{"id":231,"fecha":"06/09/2017","importe":58.87,"latitud":30.72265,"longitud":109.787541},
{"id":232,"fecha":"09/30/2017","importe":30.12,"latitud":36.0802326,"longitud":-86.8320743},
{"id":233,"fecha":"06/02/2017","importe":49.58,"latitud":-8.7916488,"longitud":121.0392436},
{"id":234,"fecha":"04/05/2017","importe":81.78,"latitud":50.1855816,"longitud":15.0436604},
{"id":235,"fecha":"06/14/2017","importe":26.75,"latitud":-16.4660314,"longitud":-71.5308508},
{"id":236,"fecha":"02/19/2017","importe":39.45,"latitud":55.354135,"longitud":40.297852},
{"id":237,"fecha":"11/01/2017","importe":83.95,"latitud":"-8.0395","longitud":"113.8512"},
{"id":238,"fecha":"07/22/2017","importe":52.74,"latitud":-21.7972251,"longitud":-50.879763},
{"id":239,"fecha":"09/10/2017","importe":11.49,"latitud":-6.7332152,"longitud":111.1950767},
{"id":240,"fecha":"12/06/2017","importe":36.17,"latitud":-7.2679917,"longitud":112.6626281},
{"id":241,"fecha":"12/05/2017","importe":80.24,"latitud":-8.7615563,"longitud":116.3574136},
{"id":242,"fecha":"06/21/2017","importe":44.51,"latitud":37.16516,"longitud":122.486657},
{"id":243,"fecha":"12/24/2017","importe":5.33,"latitud":30.630173,"longitud":120.565098},
{"id":244,"fecha":"10/04/2017","importe":51.81,"latitud":27.4583303,"longitud":120.3078508},
{"id":245,"fecha":"10/13/2017","importe":42.1,"latitud":40.479895,"longitud":123.170569},
{"id":246,"fecha":"08/15/2017","importe":64.14,"latitud":13.6690327,"longitud":120.8546864},
{"id":247,"fecha":"07/08/2017","importe":44.0,"latitud":50.7444784,"longitud":26.0171919},
{"id":248,"fecha":"08/23/2017","importe":18.72,"latitud":18.4,"longitud":-66.05},
{"id":249,"fecha":"02/11/2017","importe":40.03,"latitud":52.4379891,"longitud":20.6119813},
{"id":250,"fecha":"07/01/2017","importe":49.56,"latitud":49.0096906,"longitud":2.5479245},
{"id":251,"fecha":"05/23/2017","importe":83.43,"latitud":37.6854422,"longitud":48.3412639},
{"id":252,"fecha":"06/19/2017","importe":33.62,"latitud":12.647214,"longitud":102.0032957},
{"id":253,"fecha":"08/31/2017","importe":44.04,"latitud":16.9165711,"longitud":107.0303221},
{"id":254,"fecha":"12/03/2017","importe":12.51,"latitud":40.04,"longitud":-76.31},
{"id":255,"fecha":"01/20/2017","importe":13.38,"latitud":54.8948642,"longitud":42.7717966},
{"id":256,"fecha":"11/05/2017","importe":36.23,"latitud":31.364902,"longitud":108.249509},
{"id":257,"fecha":"11/20/2017","importe":91.38,"latitud":52.807699,"longitud":16.0589507},
{"id":258,"fecha":"10/27/2017","importe":27.55,"latitud":6.9894573,"longitud":81.057569},
{"id":259,"fecha":"01/12/2017","importe":43.77,"latitud":43.7441795,"longitud":2.511999},
{"id":260,"fecha":"03/24/2017","importe":78.8,"latitud":33.6781963,"longitud":-118.0127534},
{"id":261,"fecha":"07/15/2017","importe":90.42,"latitud":50.562666,"longitud":22.3233329},
{"id":262,"fecha":"07/31/2017","importe":53.51,"latitud":2.3891028,"longitud":97.730807},
{"id":263,"fecha":"03/22/2017","importe":39.63,"latitud":38.47436,"longitud":106.239679},
{"id":264,"fecha":"01/27/2017","importe":45.08,"latitud":32.830953,"longitud":110.873513},
{"id":265,"fecha":"04/06/2017","importe":1.71,"latitud":32.1620768,"longitud":118.7298193},
{"id":266,"fecha":"09/03/2017","importe":30.59,"latitud":43.0172612,"longitud":17.5644335},
{"id":267,"fecha":"02/01/2017","importe":85.15,"latitud":18.2868231,"longitud":99.4819782},
{"id":268,"fecha":"05/16/2017","importe":78.11,"latitud":7.4654418,"longitud":4.0721007},
{"id":269,"fecha":"07/10/2017","importe":73.09,"latitud":43.5162166,"longitud":-5.664252},
{"id":270,"fecha":"05/01/2017","importe":31.32,"latitud":3.3783808,"longitud":31.7822278},
{"id":271,"fecha":"12/25/2017","importe":23.68,"latitud":53.526935,"longitud":49.435224},
{"id":272,"fecha":"01/10/2018","importe":66.73,"latitud":57.9679793,"longitud":31.6515246},
{"id":273,"fecha":"04/29/2017","importe":91.09,"latitud":36.9923139,"longitud":-122.0581762},
{"id":274,"fecha":"03/10/2017","importe":16.38,"latitud":30.1631687,"longitud":71.5263363},
{"id":275,"fecha":"04/01/2017","importe":3.33,"latitud":53.7322394,"longitud":33.3332803},
{"id":276,"fecha":"12/30/2017","importe":46.8,"latitud":58.6266341,"longitud":31.3826576},
{"id":277,"fecha":"06/17/2017","importe":68.75,"latitud":-6.1756543,"longitud":35.7926792},
{"id":278,"fecha":"06/16/2017","importe":58.64,"latitud":6.7885037,"longitud":124.8730516},
{"id":279,"fecha":"09/17/2017","importe":38.31,"latitud":31.820591,"longitud":117.227219},
{"id":280,"fecha":"06/22/2017","importe":81.95,"latitud":49.839683,"longitud":24.029717},
{"id":281,"fecha":"06/19/2017","importe":8.03,"latitud":28.504386,"longitud":117.57372},
{"id":282,"fecha":"03/08/2017","importe":78.66,"latitud":-7.2541395,"longitud":112.7703313},
{"id":283,"fecha":"01/26/2017","importe":80.13,"latitud":-6.427987,"longitud":110.9561},
{"id":284,"fecha":"06/19/2017","importe":74.72,"latitud":57.537763,"longitud":26.7043139},
{"id":285,"fecha":"02/12/2017","importe":12.6,"latitud":12.7994866,"longitud":99.9669212},
{"id":286,"fecha":"09/22/2017","importe":8.79,"latitud":59.5138669,"longitud":16.0069361},
{"id":287,"fecha":"08/08/2017","importe":53.94,"latitud":27.9408161,"longitud":-101.211296},
{"id":288,"fecha":"03/16/2017","importe":12.27,"latitud":60.5381467,"longitud":15.427113},
{"id":289,"fecha":"12/25/2017","importe":99.41,"latitud":"35.99417","longitud":"129.345"},
{"id":290,"fecha":"06/11/2017","importe":66.51,"latitud":15.3098074,"longitud":120.8551691},
{"id":291,"fecha":"04/20/2017","importe":67.29,"latitud":-6.5079856,"longitud":106.0875326},
{"id":292,"fecha":"07/20/2017","importe":90.2,"latitud":24.3158024,"longitud":109.3826264},
{"id":293,"fecha":"10/14/2017","importe":3.37,"latitud":49.989968,"longitud":22.3314395},
{"id":294,"fecha":"01/29/2017","importe":45.23,"latitud":33.170904,"longitud":115.623491},
{"id":295,"fecha":"02/24/2017","importe":80.38,"latitud":52.2428641,"longitud":18.0927297},
{"id":296,"fecha":"02/02/2017","importe":47.25,"latitud":36.759507,"longitud":110.632006},
{"id":297,"fecha":"01/19/2017","importe":23.31,"latitud":42.4999931,"longitud":18.6517064},
{"id":298,"fecha":"05/12/2017","importe":20.37,"latitud":50.1559431,"longitud":14.1889828},
{"id":299,"fecha":"03/06/2017","importe":93.87,"latitud":10.29041,"longitud":-67.6274785},
{"id":300,"fecha":"10/27/2017","importe":50.05,"latitud":52.1327312,"longitud":18.2293232},
{"id":301,"fecha":"12/09/2017","importe":2.9,"latitud":41.3193419,"longitud":-8.2091148},
{"id":302,"fecha":"04/16/2017","importe":21.81,"latitud":-38.043127,"longitud":145.297768},
{"id":303,"fecha":"06/12/2017","importe":60.41,"latitud":55.3071219,"longitud":82.7407627},
{"id":304,"fecha":"07/18/2017","importe":43.24,"latitud":32.5468611,"longitud":-116.9030256},
{"id":305,"fecha":"03/22/2017","importe":26.8,"latitud":42.9107754,"longitud":21.1956273},
{"id":306,"fecha":"06/02/2017","importe":27.37,"latitud":40.3706555,"longitud":47.1378909},
{"id":307,"fecha":"12/06/2017","importe":31.63,"latitud":43.9235435,"longitud":2.141706},
{"id":308,"fecha":"08/19/2017","importe":94.94,"latitud":32.010214,"longitud":119.606439},
{"id":309,"fecha":"05/05/2017","importe":15.78,"latitud":43.2270564,"longitud":22.0309456},
{"id":310,"fecha":"01/21/2017","importe":90.29,"latitud":-34.679347,"longitud":-58.3762722},
{"id":311,"fecha":"03/21/2017","importe":66.02,"latitud":30.711012,"longitud":116.242861},
{"id":312,"fecha":"09/24/2017","importe":18.44,"latitud":8.909013,"longitud":-75.9579358},
{"id":313,"fecha":"05/08/2017","importe":18.92,"latitud":53.6447228,"longitud":10.0383761},
{"id":314,"fecha":"08/20/2017","importe":94.35,"latitud":7.2754704,"longitud":6.107645},
{"id":315,"fecha":"07/17/2017","importe":6.06,"latitud":35.520197,"longitud":105.728077},
{"id":316,"fecha":"05/21/2017","importe":83.47,"latitud":48.250574,"longitud":-1.5029858},
{"id":317,"fecha":"12/04/2017","importe":20.11,"latitud":66.3110843,"longitud":14.1351449},
{"id":318,"fecha":"04/18/2017","importe":71.59,"latitud":58.0362353,"longitud":14.976908},
{"id":319,"fecha":"01/26/2017","importe":60.2,"latitud":24.777412,"longitud":108.904706},
{"id":320,"fecha":"10/10/2017","importe":64.87,"latitud":-7.7926564,"longitud":113.3123627},
{"id":321,"fecha":"09/25/2017","importe":51.34,"latitud":48.4790559,"longitud":44.7808312},
{"id":322,"fecha":"04/24/2017","importe":91.27,"latitud":42.3930959,"longitud":18.9115964},
{"id":323,"fecha":"07/04/2017","importe":42.93,"latitud":57.8814317,"longitud":43.8050354},
{"id":324,"fecha":"02/07/2017","importe":66.18,"latitud":-8.091221,"longitud":111.9641728},
{"id":325,"fecha":"12/05/2017","importe":26.41,"latitud":40.7295095,"longitud":19.7859556},
{"id":326,"fecha":"11/14/2017","importe":83.24,"latitud":60.1368081,"longitud":14.3701585},
{"id":327,"fecha":"09/09/2017","importe":52.7,"latitud":30.521605,"longitud":111.592073},
{"id":328,"fecha":"05/31/2017","importe":55.88,"latitud":3.4481685,"longitud":-76.1667807},
{"id":329,"fecha":"02/06/2017","importe":53.19,"latitud":33.1362221,"longitud":-97.0821162},
{"id":330,"fecha":"02/01/2017","importe":3.52,"latitud":-8.1101209,"longitud":112.3963638},
{"id":331,"fecha":"07/05/2017","importe":36.93,"latitud":33.083093,"longitud":120.185095},
{"id":332,"fecha":"03/19/2017","importe":48.17,"latitud":30.939169,"longitud":100.311368},
{"id":333,"fecha":"12/09/2017","importe":99.2,"latitud":-26.9272107,"longitud":-60.0485206},
{"id":334,"fecha":"09/26/2017","importe":11.79,"latitud":21.3057815,"longitud":106.3846459},
{"id":335,"fecha":"04/21/2017","importe":34.34,"latitud":"50.41661","longitud":"31.46261"},
{"id":336,"fecha":"07/24/2017","importe":59.94,"latitud":34.5594987,"longitud":112.4678779},
{"id":337,"fecha":"05/26/2017","importe":50.82,"latitud":13.0553578,"longitud":99.8348146},
{"id":338,"fecha":"12/13/2017","importe":33.0,"latitud":-6.4937893,"longitud":-43.7039903},
{"id":339,"fecha":"08/01/2017","importe":36.79,"latitud":55.7452926,"longitud":24.3713362},
{"id":340,"fecha":"03/15/2017","importe":43.33,"latitud":59.0953369,"longitud":10.2246608},
{"id":341,"fecha":"12/20/2017","importe":20.85,"latitud":-37.4762431,"longitud":-73.3421243},
{"id":342,"fecha":"06/21/2017","importe":20.24,"latitud":-2.3286839,"longitud":-79.4056784},
{"id":343,"fecha":"01/26/2017","importe":45.62,"latitud":44.57629,"longitud":-80.9206653},
{"id":344,"fecha":"06/07/2017","importe":32.53,"latitud":-8.2879909,"longitud":114.6281974},
{"id":345,"fecha":"11/17/2017","importe":35.45,"latitud":33.969218,"longitud":99.900904},
{"id":346,"fecha":"11/26/2017","importe":66.2,"latitud":-6.9039936,"longitud":112.1717105},
{"id":347,"fecha":"07/05/2017","importe":97.62,"latitud":30.479255,"longitud":110.227902},
{"id":348,"fecha":"11/08/2017","importe":63.42,"latitud":34.4203709,"longitud":73.2008084},
{"id":349,"fecha":"05/02/2017","importe":18.65,"latitud":30.8851314,"longitud":-9.0439796},
{"id":350,"fecha":"11/30/2017","importe":43.59,"latitud":41.5120612,"longitud":-5.7415013},
{"id":351,"fecha":"09/14/2017","importe":43.34,"latitud":-14.1102622,"longitud":-73.8720449},
{"id":352,"fecha":"02/18/2017","importe":68.09,"latitud":-6.8008183,"longitud":107.1781769},
{"id":353,"fecha":"06/04/2017","importe":73.57,"latitud":61.7983586,"longitud":34.3753781},
{"id":354,"fecha":"09/25/2017","importe":9.9,"latitud":-6.279197,"longitud":106.832873},
{"id":355,"fecha":"09/25/2017","importe":57.26,"latitud":-7.7830972,"longitud":112.3188749},
{"id":356,"fecha":"01/26/2017","importe":56.68,"latitud":51.1480274,"longitud":71.4256221},
{"id":357,"fecha":"06/02/2017","importe":7.22,"latitud":57.6413494,"longitud":18.546063},
{"id":358,"fecha":"11/27/2017","importe":18.63,"latitud":51.441874,"longitud":6.886548},
{"id":359,"fecha":"04/24/2017","importe":20.26,"latitud":46.9755236,"longitud":30.469358},
{"id":360,"fecha":"12/15/2017","importe":15.32,"latitud":49.0426,"longitud":2.087826},
{"id":361,"fecha":"03/10/2017","importe":47.69,"latitud":32.121962,"longitud":120.337007},
{"id":362,"fecha":"08/30/2017","importe":35.29,"latitud":22.3121914,"longitud":90.7218441},
{"id":363,"fecha":"02/01/2017","importe":59.4,"latitud":1.3118981,"longitud":32.463708},
{"id":364,"fecha":"03/29/2017","importe":65.79,"latitud":40.5511823,"longitud":22.249713},
{"id":365,"fecha":"06/25/2017","importe":72.94,"latitud":-9.1472165,"longitud":-77.7267877},
{"id":366,"fecha":"06/03/2017","importe":5.85,"latitud":22.6229329,"longitud":113.2773942},
{"id":367,"fecha":"11/09/2017","importe":52.25,"latitud":-12.1140973,"longitud":-77.0445279},
{"id":368,"fecha":"08/23/2017","importe":71.62,"latitud":18.5769276,"longitud":100.2151578},
{"id":369,"fecha":"05/08/2017","importe":12.05,"latitud":58.8484094,"longitud":26.9399664},
{"id":370,"fecha":"05/04/2017","importe":71.59,"latitud":-16.9794093,"longitud":-67.2162619},
{"id":371,"fecha":"04/26/2017","importe":70.23,"latitud":16.7122183,"longitud":103.7694692},
{"id":372,"fecha":"02/23/2017","importe":74.86,"latitud":45.54,"longitud":-122.66},
{"id":373,"fecha":"07/11/2017","importe":12.64,"latitud":47.7334545,"longitud":-3.4955428},
{"id":374,"fecha":"12/15/2017","importe":50.21,"latitud":53.5460327,"longitud":47.6885743},
{"id":375,"fecha":"09/06/2017","importe":2.58,"latitud":40.9034427,"longitud":-7.9953451},
{"id":376,"fecha":"02/13/2017","importe":97.66,"latitud":49.909141,"longitud":19.6159543},
{"id":377,"fecha":"04/10/2017","importe":95.62,"latitud":4.6839135,"longitud":46.6198608},
{"id":378,"fecha":"02/18/2017","importe":55.34,"latitud":40.2201203,"longitud":23.6688433},
{"id":379,"fecha":"10/03/2017","importe":17.8,"latitud":51.386359,"longitud":21.897405},
{"id":380,"fecha":"11/27/2017","importe":4.82,"latitud":57.2528644,"longitud":16.4754832},
{"id":381,"fecha":"08/12/2017","importe":30.59,"latitud":-29.1051592,"longitud":-54.8731219},
{"id":382,"fecha":"06/15/2017","importe":75.23,"latitud":"49.76647","longitud":"-119.73568"},
{"id":383,"fecha":"04/30/2017","importe":44.3,"latitud":-15.3745452,"longitud":167.8138553},
{"id":384,"fecha":"09/06/2017","importe":54.26,"latitud":35.4957441,"longitud":139.4480166},
{"id":385,"fecha":"10/20/2017","importe":1.91,"latitud":39.4670766,"longitud":-8.4504292},
{"id":386,"fecha":"06/18/2017","importe":6.51,"latitud":59.7458284,"longitud":18.6851872},
{"id":387,"fecha":"02/08/2017","importe":87.02,"latitud":52.3554418,"longitud":46.5615075},
{"id":388,"fecha":"01/01/2018","importe":38.98,"latitud":14.5042512,"longitud":101.948349},
{"id":389,"fecha":"09/16/2017","importe":10.56,"latitud":10.74044,"longitud":-74.755272},
{"id":390,"fecha":"11/05/2017","importe":51.8,"latitud":33.6952452,"longitud":-117.7639765},
{"id":391,"fecha":"07/19/2017","importe":75.08,"latitud":32.5483419,"longitud":120.4520149},
{"id":392,"fecha":"05/24/2017","importe":96.17,"latitud":-10.8588218,"longitud":123.006322},
{"id":393,"fecha":"04/19/2017","importe":48.55,"latitud":28.043902,"longitud":120.6648587},
{"id":394,"fecha":"04/19/2017","importe":98.25,"latitud":32.388854,"longitud":109.361864},
{"id":395,"fecha":"02/16/2017","importe":88.59,"latitud":44.685084,"longitud":130.45697},
{"id":396,"fecha":"04/20/2017","importe":15.24,"latitud":36.091367,"longitud":120.494295},
{"id":397,"fecha":"08/01/2017","importe":42.38,"latitud":41.961922,"longitud":86.483486},
{"id":398,"fecha":"03/14/2017","importe":81.02,"latitud":52.2413206,"longitud":-7.0833118},
{"id":399,"fecha":"11/15/2017","importe":42.97,"latitud":37.955893,"longitud":23.7020975},
{"id":400,"fecha":"11/14/2017","importe":14.02,"latitud":49.5206119,"longitud":6.0453754},
{"id":401,"fecha":"06/28/2017","importe":97.05,"latitud":9.236872,"longitud":-75.723394},
{"id":402,"fecha":"08/22/2017","importe":54.64,"latitud":-7.1282614,"longitud":108.6591293},
{"id":403,"fecha":"07/28/2017","importe":14.83,"latitud":12.1929841,"longitud":-61.7020265},
{"id":404,"fecha":"09/18/2017","importe":20.1,"latitud":"-9.62074","longitud":"119.56671"},
{"id":405,"fecha":"07/29/2017","importe":95.61,"latitud":40.2706832,"longitud":45.135943},
{"id":406,"fecha":"03/26/2017","importe":78.52,"latitud":42.3155073,"longitud":20.816549},
{"id":407,"fecha":"02/28/2017","importe":14.56,"latitud":-9.2899075,"longitud":-78.4524591},
{"id":408,"fecha":"12/04/2017","importe":44.16,"latitud":50.0667486,"longitud":22.5015349},
{"id":409,"fecha":"09/07/2017","importe":45.43,"latitud":43.330734,"longitud":46.3582371},
{"id":410,"fecha":"05/13/2017","importe":46.87,"latitud":-2.7389977,"longitud":-78.8458135},
{"id":411,"fecha":"04/27/2017","importe":96.8,"latitud":12.6400252,"longitud":10.7048554},
{"id":412,"fecha":"12/15/2017","importe":53.78,"latitud":37.4367461,"longitud":-7.7770783},
{"id":413,"fecha":"01/18/2017","importe":9.37,"latitud":54.9897886,"longitud":62.547128},
{"id":414,"fecha":"04/27/2017","importe":83.17,"latitud":34.5594987,"longitud":112.4678779},
{"id":415,"fecha":"03/18/2017","importe":53.38,"latitud":-16.7918481,"longitud":47.6479775},
{"id":416,"fecha":"09/06/2017","importe":21.01,"latitud":-7.0894174,"longitud":114.0458275},
{"id":417,"fecha":"01/06/2018","importe":27.54,"latitud":43.3057431,"longitud":-1.9802013},
{"id":418,"fecha":"05/10/2017","importe":45.04,"latitud":14.6002303,"longitud":121.0480673},
{"id":419,"fecha":"09/02/2017","importe":60.84,"latitud":"41.37222","longitud":"69.38167"},
{"id":420,"fecha":"01/31/2017","importe":61.45,"latitud":60.0587654,"longitud":18.0822119},
{"id":421,"fecha":"01/02/2018","importe":20.02,"latitud":18.1712764,"longitud":-76.4476321},
{"id":422,"fecha":"01/06/2018","importe":11.38,"latitud":51.9094928,"longitud":5.4352554},
{"id":423,"fecha":"04/01/2017","importe":91.06,"latitud":8.7504833,"longitud":124.7798258},
{"id":424,"fecha":"10/08/2017","importe":59.9,"latitud":"14.8648","longitud":"32.3668"},
{"id":425,"fecha":"11/03/2017","importe":38.91,"latitud":-17.8766507,"longitud":30.6775054},
{"id":426,"fecha":"04/04/2017","importe":4.07,"latitud":-34.6324213,"longitud":-71.3592116},
{"id":427,"fecha":"05/15/2017","importe":14.7,"latitud":53.1620102,"longitud":16.6118082},
{"id":428,"fecha":"04/16/2017","importe":40.57,"latitud":54.1187723,"longitud":-114.3954066},
{"id":429,"fecha":"12/14/2017","importe":26.05,"latitud":-22.4709659,"longitud":-44.4513347},
{"id":430,"fecha":"01/12/2017","importe":93.36,"latitud":28.9261863,"longitud":81.647344},
{"id":431,"fecha":"08/14/2017","importe":40.75,"latitud":14.061619,"longitud":46.914966},
{"id":432,"fecha":"03/30/2017","importe":65.18,"latitud":47.2215999,"longitud":5.9675963},
{"id":433,"fecha":"02/19/2017","importe":30.02,"latitud":41.0463282,"longitud":-6.8672668},
{"id":434,"fecha":"11/09/2017","importe":71.86,"latitud":"31.77078","longitud":"35.26916"},
{"id":435,"fecha":"12/15/2017","importe":3.5,"latitud":63.2945202,"longitud":18.6699799},
{"id":436,"fecha":"10/20/2017","importe":28.67,"latitud":41.3922962,"longitud":-8.3323796},
{"id":437,"fecha":"03/03/2017","importe":90.36,"latitud":25.4105868,"longitud":68.418057},
{"id":438,"fecha":"02/16/2017","importe":54.82,"latitud":10.4662629,"longitud":-66.6168821},
{"id":439,"fecha":"10/29/2017","importe":34.82,"latitud":14.3283582,"longitud":120.9772289},
{"id":440,"fecha":"06/29/2017","importe":9.97,"latitud":-32.7071454,"longitud":26.2952385},
{"id":441,"fecha":"05/22/2017","importe":89.92,"latitud":-4.805035,"longitud":119.5571677},
{"id":442,"fecha":"06/10/2017","importe":40.64,"latitud":35.289368,"longitud":115.089905},
{"id":443,"fecha":"10/19/2017","importe":89.04,"latitud":40.69,"longitud":-73.81},
{"id":444,"fecha":"02/20/2017","importe":98.09,"latitud":9.201062,"longitud":-73.5425659},
{"id":445,"fecha":"02/20/2017","importe":78.52,"latitud":43.372464,"longitud":128.2323169},
{"id":446,"fecha":"08/24/2017","importe":4.45,"latitud":57.6902027,"longitud":11.9070339},
{"id":447,"fecha":"06/19/2017","importe":2.89,"latitud":35.6139047,"longitud":36.5607888},
{"id":448,"fecha":"03/20/2017","importe":53.94,"latitud":10.2718373,"longitud":123.8560043},
{"id":449,"fecha":"12/09/2017","importe":67.15,"latitud":30.912302,"longitud":95.604143},
{"id":450,"fecha":"01/18/2017","importe":69.48,"latitud":13.4485234,"longitud":121.8385996},
{"id":451,"fecha":"11/10/2017","importe":38.74,"latitud":6.9894573,"longitud":81.057569},
{"id":452,"fecha":"02/04/2017","importe":93.08,"latitud":21.0471807,"longitud":104.2991973},
{"id":453,"fecha":"05/11/2017","importe":67.28,"latitud":40.862786,"longitud":-8.4731932},
{"id":454,"fecha":"04/18/2017","importe":55.46,"latitud":24.265926,"longitud":116.081656},
{"id":455,"fecha":"06/10/2017","importe":44.34,"latitud":54.732298,"longitud":39.507098},
{"id":456,"fecha":"11/21/2017","importe":15.48,"latitud":52.5967759,"longitud":15.5140181},
{"id":457,"fecha":"10/29/2017","importe":8.14,"latitud":6.7156982,"longitud":-3.4801349},
{"id":458,"fecha":"04/05/2017","importe":94.86,"latitud":32.709243,"longitud":116.722615},
{"id":459,"fecha":"02/08/2017","importe":50.96,"latitud":-20.1914261,"longitud":32.6333973},
{"id":460,"fecha":"05/21/2017","importe":45.6,"latitud":-7.9207392,"longitud":112.5870873},
{"id":461,"fecha":"06/30/2017","importe":79.6,"latitud":9.939624,"longitud":126.065213},
{"id":462,"fecha":"12/13/2017","importe":38.41,"latitud":14.6632212,"longitud":-90.6132158},
{"id":463,"fecha":"11/06/2017","importe":40.87,"latitud":55.8874526,"longitud":37.0330937},
{"id":464,"fecha":"03/29/2017","importe":12.99,"latitud":35.6940331,"longitud":138.5178782},
{"id":465,"fecha":"01/01/2018","importe":20.01,"latitud":49.5882649,"longitud":17.3525487},
{"id":466,"fecha":"10/09/2017","importe":42.92,"latitud":"34.55132","longitud":"65.79302"},
{"id":467,"fecha":"08/24/2017","importe":52.99,"latitud":6.9280156,"longitud":79.8908308},
{"id":468,"fecha":"12/05/2017","importe":54.94,"latitud":55.7498774,"longitud":37.1754993},
{"id":469,"fecha":"12/26/2017","importe":49.22,"latitud":27.820107,"longitud":105.965695},
{"id":470,"fecha":"11/05/2017","importe":59.0,"latitud":13.0695031,"longitud":-3.0626284},
{"id":471,"fecha":"10/31/2017","importe":73.18,"latitud":-6.6359299,"longitud":106.8370122},
{"id":472,"fecha":"06/09/2017","importe":98.57,"latitud":"43.69694","longitud":"44.93444"},
{"id":473,"fecha":"09/08/2017","importe":35.44,"latitud":"-7.229","longitud":"106.9856"},
{"id":474,"fecha":"02/03/2017","importe":56.74,"latitud":-2.569886,"longitud":140.50321},
{"id":475,"fecha":"08/08/2017","importe":19.41,"latitud":34.8412176,"longitud":32.4297369},
{"id":476,"fecha":"10/17/2017","importe":90.01,"latitud":34.9904542,"longitud":126.4816856},
{"id":477,"fecha":"10/01/2017","importe":42.05,"latitud":55.780902,"longitud":37.618106},
{"id":478,"fecha":"05/15/2017","importe":98.62,"latitud":-25.3088443,"longitud":-56.9014072},
{"id":479,"fecha":"10/10/2017","importe":65.72,"latitud":49.7002226,"longitud":5.9670927},
{"id":480,"fecha":"09/17/2017","importe":84.33,"latitud":34.341574,"longitud":108.93977},
{"id":481,"fecha":"11/18/2017","importe":12.62,"latitud":25.0248314,"longitud":121.7408654},
{"id":482,"fecha":"04/18/2017","importe":3.74,"latitud":46.635417,"longitud":32.616867},
{"id":483,"fecha":"05/18/2017","importe":35.66,"latitud":48.690168,"longitud":-1.3699309},
{"id":484,"fecha":"05/06/2017","importe":21.85,"latitud":41.0062832,"longitud":-8.4822972},
{"id":485,"fecha":"01/08/2018","importe":1.73,"latitud":43.411002,"longitud":5.0434979},
{"id":486,"fecha":"11/01/2017","importe":19.21,"latitud":56.5646213,"longitud":53.8155143},
{"id":487,"fecha":"11/23/2017","importe":51.04,"latitud":50.3815209,"longitud":24.0089352},
{"id":488,"fecha":"06/07/2017","importe":45.39,"latitud":30.5911589,"longitud":50.234745},
{"id":489,"fecha":"08/02/2017","importe":95.26,"latitud":48.3156651,"longitud":0.839002},
{"id":490,"fecha":"04/09/2017","importe":25.47,"latitud":48.732568,"longitud":2.2889821},
{"id":491,"fecha":"12/29/2017","importe":9.42,"latitud":-6.3865373,"longitud":107.4010519},
{"id":492,"fecha":"12/16/2017","importe":35.66,"latitud":13.4734999,"longitud":122.6157793},
{"id":493,"fecha":"09/12/2017","importe":10.65,"latitud":-28.1804757,"longitud":30.1531568},
{"id":494,"fecha":"06/11/2017","importe":60.16,"latitud":48.9046915,"longitud":16.8160548},
{"id":495,"fecha":"08/14/2017","importe":98.1,"latitud":30.823526,"longitud":91.622728},
{"id":496,"fecha":"06/18/2017","importe":17.71,"latitud":22.280436,"longitud":114.157935},
{"id":497,"fecha":"04/23/2017","importe":2.83,"latitud":59.3289759,"longitud":18.0651149},
{"id":498,"fecha":"05/05/2017","importe":44.57,"latitud":2.0560112,"longitud":-77.5160788},
{"id":499,"fecha":"03/22/2017","importe":51.87,"latitud":59.3851719,"longitud":17.9172006},
{"id":500,"fecha":"07/21/2017","importe":39.07,"latitud":-9.6666989,"longitud":124.3365882},
{"id":501,"fecha":"04/28/2017","importe":74.93,"latitud":25.462039,"longitud":119.088792},
{"id":502,"fecha":"09/25/2017","importe":74.16,"latitud":15.1369653,"longitud":-87.1273253},
{"id":503,"fecha":"05/26/2017","importe":28.66,"latitud":28.944692,"longitud":119.314016},
{"id":504,"fecha":"04/29/2017","importe":92.2,"latitud":45.6910361,"longitud":20.5792392},
{"id":505,"fecha":"03/27/2017","importe":29.66,"latitud":"40.0254","longitud":"64.82885"},
{"id":506,"fecha":"01/13/2017","importe":66.63,"latitud":-9.7744129,"longitud":-76.785759},
{"id":507,"fecha":"06/04/2017","importe":67.61,"latitud":53.5511779,"longitud":9.9641759},
{"id":508,"fecha":"11/18/2017","importe":92.52,"latitud":10.2227095,"longitud":12.051835},
{"id":509,"fecha":"08/23/2017","importe":92.34,"latitud":51.3305246,"longitud":6.7625867},
{"id":510,"fecha":"08/15/2017","importe":43.37,"latitud":-8.5803424,"longitud":116.3654707},
{"id":511,"fecha":"12/27/2017","importe":23.85,"latitud":62.4070944,"longitud":17.2494041},
{"id":512,"fecha":"01/01/2018","importe":22.01,"latitud":34.2312322,"longitud":-5.7194522},
{"id":513,"fecha":"02/18/2017","importe":5.39,"latitud":-23.2860188,"longitud":-47.6790285},
{"id":514,"fecha":"11/25/2017","importe":70.49,"latitud":41.242873,"longitud":121.996499},
{"id":515,"fecha":"07/29/2017","importe":84.05,"latitud":41.9403795,"longitud":-87.6531805},
{"id":516,"fecha":"07/16/2017","importe":41.39,"latitud":45.8788922,"longitud":20.5527173},
{"id":517,"fecha":"02/28/2017","importe":74.44,"latitud":61.0031692,"longitud":25.3947277},
{"id":518,"fecha":"11/28/2017","importe":8.09,"latitud":28.109577,"longitud":107.269482},
{"id":519,"fecha":"03/05/2017","importe":72.18,"latitud":7.1402468,"longitud":40.7107871},
{"id":520,"fecha":"07/25/2017","importe":84.5,"latitud":-30.8772854,"longitud":-55.5392304},
{"id":521,"fecha":"08/28/2017","importe":79.43,"latitud":"47.55717","longitud":"106.96333"},
{"id":522,"fecha":"02/24/2017","importe":12.96,"latitud":-1.2457596,"longitud":102.2261837},
{"id":523,"fecha":"02/21/2017","importe":95.92,"latitud":52.8522051,"longitud":23.0334561},
{"id":524,"fecha":"08/23/2017","importe":90.49,"latitud":40.3219266,"longitud":-7.612767},
{"id":525,"fecha":"05/10/2017","importe":47.79,"latitud":27.661918,"longitud":120.565793},
{"id":526,"fecha":"02/14/2017","importe":61.87,"latitud":32.3858505,"longitud":35.6629038},
{"id":527,"fecha":"04/10/2017","importe":71.98,"latitud":46.4244411,"longitud":16.4312318},
{"id":528,"fecha":"03/26/2017","importe":61.76,"latitud":48.1662009,"longitud":24.9459851},
{"id":529,"fecha":"07/17/2017","importe":43.33,"latitud":42.671377,"longitud":23.2572455},
{"id":530,"fecha":"09/30/2017","importe":7.45,"latitud":12.1630333,"longitud":-84.2199753},
{"id":531,"fecha":"06/18/2017","importe":92.58,"latitud":43.1927985,"longitud":44.8994082},
{"id":532,"fecha":"05/31/2017","importe":22.91,"latitud":37.054157,"longitud":122.354016},
{"id":533,"fecha":"03/01/2017","importe":90.3,"latitud":29.339476,"longitud":105.287612},
{"id":534,"fecha":"12/30/2017","importe":89.79,"latitud":52.54952,"longitud":13.35118},
{"id":535,"fecha":"07/04/2017","importe":53.58,"latitud":4.5827227,"longitud":-74.2117465},
{"id":536,"fecha":"11/11/2017","importe":49.39,"latitud":30.126539,"longitud":120.965215},
{"id":537,"fecha":"05/28/2017","importe":70.74,"latitud":56.7391033,"longitud":38.8533938},
{"id":538,"fecha":"01/23/2017","importe":34.21,"latitud":29.9826362,"longitud":121.3165342},
{"id":539,"fecha":"06/24/2017","importe":67.55,"latitud":-7.3356583,"longitud":109.0798332},
{"id":540,"fecha":"08/22/2017","importe":55.37,"latitud":-31.3224313,"longitud":-62.813111},
{"id":541,"fecha":"06/25/2017","importe":34.43,"latitud":51.7888924,"longitud":23.2083805},
{"id":542,"fecha":"11/07/2017","importe":1.59,"latitud":52.8234799,"longitud":21.3426286},
{"id":543,"fecha":"05/01/2017","importe":55.64,"latitud":-39.8084258,"longitud":-73.2230401},
{"id":544,"fecha":"12/27/2017","importe":51.66,"latitud":-23.4554707,"longitud":-52.0423373},
{"id":545,"fecha":"11/29/2017","importe":33.57,"latitud":59.3779388,"longitud":10.7605604},
{"id":546,"fecha":"10/17/2017","importe":78.18,"latitud":18.8826771,"longitud":-96.935003},
{"id":547,"fecha":"01/29/2017","importe":88.8,"latitud":14.6465082,"longitud":120.9731375},
{"id":548,"fecha":"11/30/2017","importe":15.07,"latitud":19.318366,"longitud":109.948275},
{"id":549,"fecha":"05/03/2017","importe":36.11,"latitud":48.8373554,"longitud":2.2682399},
{"id":550,"fecha":"08/21/2017","importe":61.87,"latitud":37.612712,"longitud":113.707184},
{"id":551,"fecha":"08/04/2017","importe":3.0,"latitud":-6.8582288,"longitud":109.1508428},
{"id":552,"fecha":"10/21/2017","importe":77.74,"latitud":40.608793,"longitud":115.099494},
{"id":553,"fecha":"11/01/2017","importe":21.92,"latitud":49.7722369,"longitud":20.506072},
{"id":554,"fecha":"12/06/2017","importe":79.36,"latitud":44.86614,"longitud":19.347341},
{"id":555,"fecha":"01/01/2018","importe":24.85,"latitud":50.6514963,"longitud":21.2602765},
{"id":556,"fecha":"01/03/2018","importe":59.01,"latitud":19.4102526,"longitud":-99.0073673},
{"id":557,"fecha":"07/31/2017","importe":73.32,"latitud":-8.1450324,"longitud":113.400216},
{"id":558,"fecha":"11/06/2017","importe":58.11,"latitud":45.9067495,"longitud":-72.5406445},
{"id":559,"fecha":"01/24/2017","importe":59.93,"latitud":41.8033445,"longitud":-7.5528376},
{"id":560,"fecha":"08/05/2017","importe":7.47,"latitud":37.9133273,"longitud":139.0158281},
{"id":561,"fecha":"05/28/2017","importe":61.04,"latitud":52.5094874,"longitud":16.7474972},
{"id":562,"fecha":"03/06/2017","importe":32.59,"latitud":37.8904348,"longitud":-25.8207556},
{"id":563,"fecha":"04/22/2017","importe":3.39,"latitud":1.1322476,"longitud":104.0115689},
{"id":564,"fecha":"07/16/2017","importe":67.62,"latitud":-4.6589357,"longitud":120.3594043},
{"id":565,"fecha":"09/12/2017","importe":9.95,"latitud":-27.2000865,"longitud":-54.9815915},
{"id":566,"fecha":"04/15/2017","importe":27.09,"latitud":"31.50911","longitud":"34.94938"},
{"id":567,"fecha":"09/11/2017","importe":45.71,"latitud":-30.8772854,"longitud":-55.5392304},
{"id":568,"fecha":"08/30/2017","importe":53.62,"latitud":41.1036618,"longitud":20.0226337},
{"id":569,"fecha":"09/29/2017","importe":25.56,"latitud":33.8941622,"longitud":133.1395202},
{"id":570,"fecha":"07/09/2017","importe":63.58,"latitud":48.8706152,"longitud":2.2289339},
{"id":571,"fecha":"11/19/2017","importe":76.18,"latitud":28.023893,"longitud":116.263188},
{"id":572,"fecha":"03/06/2017","importe":87.24,"latitud":45.1604718,"longitud":14.7725567},
{"id":573,"fecha":"10/26/2017","importe":16.42,"latitud":42.8970535,"longitud":-8.5418899},
{"id":574,"fecha":"08/30/2017","importe":39.16,"latitud":48.509075,"longitud":-2.7383235},
{"id":575,"fecha":"11/22/2017","importe":48.77,"latitud":40.7531415,"longitud":45.7400681},
{"id":576,"fecha":"06/16/2017","importe":14.79,"latitud":49.116169,"longitud":6.1807997},
{"id":577,"fecha":"10/30/2017","importe":22.95,"latitud":"-8.3052","longitud":"123.237"},
{"id":578,"fecha":"03/12/2017","importe":47.96,"latitud":8.0030266,"longitud":124.3465661},
{"id":579,"fecha":"12/23/2017","importe":55.41,"latitud":-20.2307033,"longitud":-70.1356692},
{"id":580,"fecha":"04/29/2017","importe":81.66,"latitud":40.104785,"longitud":117.116756},
{"id":581,"fecha":"05/22/2017","importe":12.99,"latitud":54.659677,"longitud":51.5020158},
{"id":582,"fecha":"10/19/2017","importe":42.81,"latitud":49.4382375,"longitud":1.0598119},
{"id":583,"fecha":"10/19/2017","importe":54.31,"latitud":39.9167763,"longitud":-7.4517472},
{"id":584,"fecha":"04/18/2017","importe":61.53,"latitud":-9.7464338,"longitud":124.4309165},
{"id":585,"fecha":"04/20/2017","importe":73.32,"latitud":-5.5844754,"longitud":105.4771084},
{"id":586,"fecha":"09/20/2017","importe":28.15,"latitud":3.991663,"longitud":-73.766129},
{"id":587,"fecha":"02/13/2017","importe":42.06,"latitud":40.425649,"longitud":-3.6721577},
{"id":588,"fecha":"05/05/2017","importe":25.08,"latitud":59.2711605,"longitud":15.1823423},
{"id":589,"fecha":"07/19/2017","importe":47.27,"latitud":6.0849674,"longitud":11.4878714},
{"id":590,"fecha":"01/17/2017","importe":42.31,"latitud":-31.5534831,"longitud":-63.5362339},
{"id":591,"fecha":"03/01/2017","importe":66.57,"latitud":35.0107648,"longitud":69.1625896},
{"id":592,"fecha":"09/22/2017","importe":72.49,"latitud":44.2452219,"longitud":43.0880662},
{"id":593,"fecha":"09/19/2017","importe":72.48,"latitud":30.174004,"longitud":122.039055},
{"id":594,"fecha":"08/10/2017","importe":64.11,"latitud":16.650007,"longitud":103.889068},
{"id":595,"fecha":"05/27/2017","importe":42.65,"latitud":59.4075977,"longitud":17.9282806},
{"id":596,"fecha":"02/03/2017","importe":51.78,"latitud":12.5640276,"longitud":123.7304111},
{"id":597,"fecha":"11/24/2017","importe":42.14,"latitud":-8.6222433,"longitud":120.4492035},
{"id":598,"fecha":"10/03/2017","importe":27.69,"latitud":-21.4261129,"longitud":-45.9481612},
{"id":599,"fecha":"12/05/2017","importe":30.8,"latitud":39.309746,"longitud":115.958784},
{"id":600,"fecha":"11/30/2017","importe":84.84,"latitud":46.5217941,"longitud":6.0221735},
{"id":601,"fecha":"01/07/2018","importe":59.04,"latitud":43.3045595,"longitud":44.9887945},
{"id":602,"fecha":"11/23/2017","importe":29.92,"latitud":-18.1969907,"longitud":-69.5597273},
{"id":603,"fecha":"04/20/2017","importe":88.27,"latitud":"47.78333","longitud":"112.11667"},
{"id":604,"fecha":"12/04/2017","importe":81.27,"latitud":56.8134441,"longitud":13.9368114},
{"id":605,"fecha":"04/25/2017","importe":80.96,"latitud":-31.6146073,"longitud":-60.7152064},
{"id":606,"fecha":"04/27/2017","importe":45.38,"latitud":10.1310658,"longitud":106.3311197},
{"id":607,"fecha":"04/18/2017","importe":49.3,"latitud":11.4894238,"longitud":-3.523092},
{"id":608,"fecha":"01/16/2017","importe":26.62,"latitud":-28.7477963,"longitud":-49.4745059},
{"id":609,"fecha":"02/09/2017","importe":64.1,"latitud":33.226552,"longitud":115.600976},
{"id":610,"fecha":"03/26/2017","importe":15.24,"latitud":-8.844744,"longitud":121.648987},
{"id":611,"fecha":"06/23/2017","importe":98.72,"latitud":40.996725,"longitud":19.5270566},
{"id":612,"fecha":"08/13/2017","importe":14.92,"latitud":54.0809529,"longitud":21.4937201},
{"id":613,"fecha":"07/23/2017","importe":9.98,"latitud":36.4745388,"longitud":66.9511459},
{"id":614,"fecha":"03/07/2017","importe":95.23,"latitud":"-6.967","longitud":"113.7517"},
{"id":615,"fecha":"03/12/2017","importe":30.19,"latitud":10.61225,"longitud":123.448209},
{"id":616,"fecha":"09/16/2017","importe":51.91,"latitud":6.1097207,"longitud":102.2462087},
{"id":617,"fecha":"01/17/2017","importe":56.64,"latitud":54.982808,"longitud":73.328393},
{"id":618,"fecha":"08/13/2017","importe":88.25,"latitud":31.9922283,"longitud":74.6768812},
{"id":619,"fecha":"08/14/2017","importe":28.51,"latitud":23.561556,"longitud":101.273161},
{"id":620,"fecha":"01/28/2017","importe":16.35,"latitud":"45.00722","longitud":"43.34944"},
{"id":621,"fecha":"09/27/2017","importe":41.3,"latitud":-6.7519382,"longitud":-38.2314566},
{"id":622,"fecha":"06/08/2017","importe":28.0,"latitud":50.0449195,"longitud":13.3750303},
{"id":623,"fecha":"04/19/2017","importe":66.78,"latitud":10.9820744,"longitud":124.9525053},
{"id":624,"fecha":"02/04/2017","importe":26.82,"latitud":1.699532,"longitud":32.0733109},
{"id":625,"fecha":"07/20/2017","importe":25.72,"latitud":59.4430147,"longitud":29.4885599},
{"id":626,"fecha":"01/07/2018","importe":9.63,"latitud":13.2944016,"longitud":-4.8987523},
{"id":627,"fecha":"05/12/2017","importe":3.04,"latitud":14.5640576,"longitud":121.1325639},
{"id":628,"fecha":"06/10/2017","importe":21.31,"latitud":23.0878573,"longitud":114.4046814},
{"id":629,"fecha":"01/02/2018","importe":8.98,"latitud":13.6332855,"longitud":100.4958678},
{"id":630,"fecha":"06/27/2017","importe":84.7,"latitud":41.4204087,"longitud":-8.3676461},
{"id":631,"fecha":"08/14/2017","importe":8.98,"latitud":14.6293712,"longitud":121.1072374},
{"id":632,"fecha":"02/15/2017","importe":3.56,"latitud":14.5946094,"longitud":104.8921668},
{"id":633,"fecha":"09/29/2017","importe":60.89,"latitud":-8.2132323,"longitud":-71.3824374},
{"id":634,"fecha":"12/03/2017","importe":68.5,"latitud":24.77848,"longitud":110.496593},
{"id":635,"fecha":"04/27/2017","importe":21.37,"latitud":49.8474618,"longitud":19.1473808},
{"id":636,"fecha":"02/05/2017","importe":73.62,"latitud":59.3245933,"longitud":17.9509504},
{"id":637,"fecha":"03/16/2017","importe":24.78,"latitud":36.809895,"longitud":116.428916},
{"id":638,"fecha":"07/02/2017","importe":37.14,"latitud":-8.0989645,"longitud":113.4061697},
{"id":639,"fecha":"06/13/2017","importe":50.95,"latitud":34.1586321,"longitud":108.2051228},
{"id":640,"fecha":"05/05/2017","importe":41.66,"latitud":38.430793,"longitud":100.812859},
{"id":641,"fecha":"10/13/2017","importe":2.02,"latitud":30.2102442,"longitud":71.486643},
{"id":642,"fecha":"04/13/2017","importe":68.49,"latitud":37.6214616,"longitud":140.4902763},
{"id":643,"fecha":"03/28/2017","importe":22.18,"latitud":44.8601051,"longitud":78.7628605},
{"id":644,"fecha":"10/15/2017","importe":26.58,"latitud":-17.4956441,"longitud":-149.8728273},
{"id":645,"fecha":"10/26/2017","importe":95.59,"latitud":49.8296261,"longitud":21.7407302},
{"id":646,"fecha":"03/14/2017","importe":16.45,"latitud":35.202503,"longitud":102.521807},
{"id":647,"fecha":"05/30/2017","importe":97.56,"latitud":32.838202,"longitud":35.079523},
{"id":648,"fecha":"12/13/2017","importe":43.3,"latitud":29.763892,"longitud":121.513271},
{"id":649,"fecha":"07/05/2017","importe":86.79,"latitud":7.766667,"longitud":-71.466667},
{"id":650,"fecha":"08/16/2017","importe":70.83,"latitud":36.7010563,"longitud":118.9112031},
{"id":651,"fecha":"03/20/2017","importe":58.43,"latitud":"49.44998","longitud":"-112.65185"},
{"id":652,"fecha":"11/22/2017","importe":98.39,"latitud":26.6849798,"longitud":100.7492159},
{"id":653,"fecha":"09/15/2017","importe":66.56,"latitud":37.3844286,"longitud":140.3940646},
{"id":654,"fecha":"08/05/2017","importe":65.56,"latitud":54.8630265,"longitud":46.3388109},
{"id":655,"fecha":"12/02/2017","importe":9.9,"latitud":30.916426,"longitud":118.734651},
{"id":656,"fecha":"12/09/2017","importe":23.04,"latitud":"9.7639","longitud":"14.1539"},
{"id":657,"fecha":"09/18/2017","importe":87.78,"latitud":36.684789,"longitud":118.479654},
{"id":658,"fecha":"02/13/2017","importe":37.56,"latitud":18.4907917,"longitud":-69.9603742},
{"id":659,"fecha":"11/17/2017","importe":14.17,"latitud":51.3842543,"longitud":58.9999439},
{"id":660,"fecha":"04/24/2017","importe":93.15,"latitud":19.4614133,"longitud":-99.1186381},
{"id":661,"fecha":"11/14/2017","importe":97.72,"latitud":56.213277,"longitud":43.29085},
{"id":662,"fecha":"07/11/2017","importe":59.01,"latitud":56.2249698,"longitud":32.771328},
{"id":663,"fecha":"10/16/2017","importe":44.28,"latitud":30.7532224,"longitud":31.442761},
{"id":664,"fecha":"08/16/2017","importe":16.2,"latitud":45.8899146,"longitud":13.6263627},
{"id":665,"fecha":"08/31/2017","importe":4.95,"latitud":39.9791423,"longitud":117.0643296},
{"id":666,"fecha":"05/23/2017","importe":4.48,"latitud":48.1440135,"longitud":11.6074275},
{"id":667,"fecha":"09/16/2017","importe":43.79,"latitud":-5.7301845,"longitud":105.6837789},
{"id":668,"fecha":"08/03/2017","importe":46.95,"latitud":59.277977,"longitud":15.211673},
{"id":669,"fecha":"07/12/2017","importe":19.84,"latitud":23.636404,"longitud":111.658698},
{"id":670,"fecha":"07/01/2017","importe":44.34,"latitud":52.5470847,"longitud":6.0237938},
{"id":671,"fecha":"05/17/2017","importe":49.59,"latitud":48.7724625,"longitud":2.2161608},
{"id":672,"fecha":"03/01/2017","importe":83.03,"latitud":39.9916667,"longitud":116.4238458},
{"id":673,"fecha":"06/12/2017","importe":23.37,"latitud":"36.3163","longitud":"74.6786"},
{"id":674,"fecha":"02/09/2017","importe":78.21,"latitud":12.9653403,"longitud":5.7418305},
{"id":675,"fecha":"11/25/2017","importe":48.6,"latitud":-29.6353852,"longitud":-51.0069543},
{"id":676,"fecha":"07/13/2017","importe":26.01,"latitud":25.80914,"longitud":110.011686},
{"id":677,"fecha":"10/18/2017","importe":15.94,"latitud":-7.3639966,"longitud":108.3207992},
{"id":678,"fecha":"04/25/2017","importe":45.76,"latitud":31.2141834,"longitud":121.4561966},
{"id":679,"fecha":"04/23/2017","importe":6.1,"latitud":-23.5441298,"longitud":-46.3660676},
{"id":680,"fecha":"05/31/2017","importe":43.18,"latitud":49.5098047,"longitud":17.4772489},
{"id":681,"fecha":"01/31/2017","importe":5.6,"latitud":24.489685,"longitud":105.093908},
{"id":682,"fecha":"10/18/2017","importe":71.82,"latitud":-1.4926759,"longitud":103.5494757},
{"id":683,"fecha":"04/12/2017","importe":61.78,"latitud":-20.0583696,"longitud":57.5504453},
{"id":684,"fecha":"01/01/2018","importe":50.6,"latitud":19.8838774,"longitud":110.4153075},
{"id":685,"fecha":"01/22/2017","importe":61.61,"latitud":41.57365,"longitud":120.4493879},
{"id":686,"fecha":"06/22/2017","importe":73.87,"latitud":59.4430147,"longitud":29.4885599},
{"id":687,"fecha":"07/05/2017","importe":83.44,"latitud":42.0160888,"longitud":24.8652145},
{"id":688,"fecha":"07/16/2017","importe":49.41,"latitud":-9.8492904,"longitud":119.7371425},
{"id":689,"fecha":"09/15/2017","importe":91.04,"latitud":18.2540705,"longitud":-70.3600393},
{"id":690,"fecha":"08/09/2017","importe":27.25,"latitud":-22.570834,"longitud":-47.4147321},
{"id":691,"fecha":"05/06/2017","importe":59.49,"latitud":47.304702,"longitud":5.970378},
{"id":692,"fecha":"07/26/2017","importe":35.36,"latitud":33.259035,"longitud":117.15878},
{"id":693,"fecha":"10/05/2017","importe":53.38,"latitud":50.5429237,"longitud":3.086469},
{"id":694,"fecha":"04/11/2017","importe":62.89,"latitud":26.352089,"longitud":111.262144},
{"id":695,"fecha":"07/19/2017","importe":89.13,"latitud":49.7245218,"longitud":16.8754183},
{"id":696,"fecha":"11/07/2017","importe":82.77,"latitud":41.0032627,"longitud":-8.1697329},
{"id":697,"fecha":"06/15/2017","importe":48.65,"latitud":41.2101265,"longitud":-7.7869527},
{"id":698,"fecha":"04/26/2017","importe":18.39,"latitud":-16.025181,"longitud":-73.170822},
{"id":699,"fecha":"10/31/2017","importe":63.9,"latitud":57.708244,"longitud":27.8608831},
{"id":700,"fecha":"08/31/2017","importe":45.24,"latitud":7.7762319,"longitud":123.7330073},
{"id":701,"fecha":"10/14/2017","importe":25.78,"latitud":40.432725,"longitud":-8.296808},
{"id":702,"fecha":"08/04/2017","importe":23.39,"latitud":"50.49976","longitud":"-120.80253"},
{"id":703,"fecha":"10/02/2017","importe":27.44,"latitud":49.9638636,"longitud":22.0339385},
{"id":704,"fecha":"01/30/2017","importe":59.14,"latitud":34.811495,"longitud":108.531138},
{"id":705,"fecha":"11/23/2017","importe":27.84,"latitud":43.2003718,"longitud":45.7880956},
{"id":706,"fecha":"07/20/2017","importe":13.23,"latitud":-33.1228052,"longitud":-58.2975552},
{"id":707,"fecha":"03/20/2017","importe":99.18,"latitud":39.45978,"longitud":21.6225718},
{"id":708,"fecha":"05/27/2017","importe":77.69,"latitud":21.31,"longitud":-157.86},
{"id":709,"fecha":"06/01/2017","importe":56.14,"latitud":-5.3003056,"longitud":105.6823124},
{"id":710,"fecha":"11/21/2017","importe":28.85,"latitud":45.8266432,"longitud":20.5937585},
{"id":711,"fecha":"05/08/2017","importe":49.64,"latitud":34.89305,"longitud":106.864397},
{"id":712,"fecha":"03/10/2017","importe":97.03,"latitud":49.075615,"longitud":16.6855513},
{"id":713,"fecha":"04/13/2017","importe":88.26,"latitud":35.811058,"longitud":101.115673},
{"id":714,"fecha":"08/31/2017","importe":82.52,"latitud":40.8440444,"longitud":45.4714491},
{"id":715,"fecha":"01/29/2017","importe":13.02,"latitud":49.9365011,"longitud":18.2190463},
{"id":716,"fecha":"07/17/2017","importe":6.6,"latitud":33.423357,"longitud":109.152893},
{"id":717,"fecha":"06/28/2017","importe":65.17,"latitud":31.528143,"longitud":62.7897132},
{"id":718,"fecha":"06/08/2017","importe":4.87,"latitud":16.7903346,"longitud":120.8249088},
{"id":719,"fecha":"04/22/2017","importe":86.48,"latitud":43.4988397,"longitud":4.9789041},
{"id":720,"fecha":"04/24/2017","importe":77.7,"latitud":-6.227136,"longitud":106.7963623},
{"id":721,"fecha":"10/11/2017","importe":8.5,"latitud":23.788392,"longitud":114.74638},
{"id":722,"fecha":"05/15/2017","importe":8.77,"latitud":"37.29167","longitud":"127.50778"},
{"id":723,"fecha":"08/01/2017","importe":90.27,"latitud":15.3242773,"longitud":-91.4839442},
{"id":724,"fecha":"09/12/2017","importe":40.87,"latitud":8.1104639,"longitud":-67.6095967},
{"id":725,"fecha":"10/19/2017","importe":99.66,"latitud":49.3457516,"longitud":16.4764384},
{"id":726,"fecha":"01/08/2018","importe":41.12,"latitud":30.938787,"longitud":120.891293},
{"id":727,"fecha":"05/23/2017","importe":97.06,"latitud":"-22.72125","longitud":"27.31057"},
{"id":728,"fecha":"11/23/2017","importe":22.48,"latitud":-9.0933664,"longitud":124.8905151},
{"id":729,"fecha":"11/19/2017","importe":32.86,"latitud":29.492402,"longitud":118.604556},
{"id":730,"fecha":"01/20/2017","importe":32.95,"latitud":36.077544,"longitud":120.008307},
{"id":731,"fecha":"10/03/2017","importe":92.86,"latitud":-5.1119324,"longitud":-39.6043575},
{"id":732,"fecha":"04/13/2017","importe":60.29,"latitud":40.638059,"longitud":-8.7470806},
{"id":733,"fecha":"06/27/2017","importe":58.24,"latitud":50.0588756,"longitud":23.9736471},
{"id":734,"fecha":"10/29/2017","importe":6.98,"latitud":34.258826,"longitud":108.972883},
{"id":735,"fecha":"08/13/2017","importe":69.36,"latitud":31.026665,"longitud":119.910952},
{"id":736,"fecha":"02/01/2017","importe":2.49,"latitud":29.235797,"longitud":111.083598},
{"id":737,"fecha":"03/09/2017","importe":46.23,"latitud":14.5748924,"longitud":-87.8782959},
{"id":738,"fecha":"11/26/2017","importe":4.1,"latitud":-7.823074,"longitud":110.1576731},
{"id":739,"fecha":"01/29/2017","importe":18.48,"latitud":28.677949,"longitud":108.304926},
{"id":740,"fecha":"09/18/2017","importe":37.01,"latitud":14.437059,"longitud":120.989883},
{"id":741,"fecha":"06/03/2017","importe":95.96,"latitud":"-20.6","longitud":"-64.55"},
{"id":742,"fecha":"06/14/2017","importe":29.14,"latitud":-8.188844,"longitud":122.9287931},
{"id":743,"fecha":"01/24/2017","importe":76.67,"latitud":50.4198861,"longitud":4.9246444},
{"id":744,"fecha":"01/27/2017","importe":68.95,"latitud":-7.0029794,"longitud":108.4572788},
{"id":745,"fecha":"04/11/2017","importe":86.09,"latitud":62.6418615,"longitud":17.9836819},
{"id":746,"fecha":"07/26/2017","importe":23.96,"latitud":43.0751316,"longitud":-88.0379517},
{"id":747,"fecha":"09/20/2017","importe":67.23,"latitud":-26.9176334,"longitud":-49.3553837},
{"id":748,"fecha":"12/25/2017","importe":5.71,"latitud":31.945399,"longitud":35.072502},
{"id":749,"fecha":"10/07/2017","importe":75.89,"latitud":53.2231057,"longitud":6.5319506},
{"id":750,"fecha":"09/01/2017","importe":63.93,"latitud":-7.9454654,"longitud":113.0845936},
{"id":751,"fecha":"01/27/2017","importe":62.57,"latitud":30.265327,"longitud":108.705237},
{"id":752,"fecha":"07/12/2017","importe":68.09,"latitud":-11.0646689,"longitud":-37.4894776},
{"id":753,"fecha":"04/18/2017","importe":11.23,"latitud":45.347492,"longitud":130.642301},
{"id":754,"fecha":"10/04/2017","importe":86.81,"latitud":32.8172446,"longitud":-96.7712123},
{"id":755,"fecha":"01/21/2017","importe":34.88,"latitud":45.5593978,"longitud":-122.807445},
{"id":756,"fecha":"05/16/2017","importe":25.03,"latitud":7.079604,"longitud":-74.699095},
{"id":757,"fecha":"03/27/2017","importe":24.6,"latitud":29.272581,"longitud":104.874073},
{"id":758,"fecha":"02/04/2017","importe":89.04,"latitud":50.6787,"longitud":18.2137899},
{"id":759,"fecha":"12/12/2017","importe":62.91,"latitud":32.930738,"longitud":106.908966},
{"id":760,"fecha":"08/26/2017","importe":13.15,"latitud":26.855047,"longitud":100.22775},
{"id":761,"fecha":"05/29/2017","importe":92.23,"latitud":31.932456,"longitud":98.425168},
{"id":762,"fecha":"10/08/2017","importe":55.5,"latitud":55.7393377,"longitud":37.6642542},
{"id":763,"fecha":"11/01/2017","importe":55.44,"latitud":40.211932,"longitud":-8.8417565},
{"id":764,"fecha":"01/07/2018","importe":21.79,"latitud":34.5594987,"longitud":112.4678779},
{"id":765,"fecha":"12/14/2017","importe":75.93,"latitud":40.1312258,"longitud":44.0097387},
{"id":766,"fecha":"01/11/2017","importe":52.93,"latitud":-6.5792655,"longitud":106.2698669},
{"id":767,"fecha":"12/30/2017","importe":5.21,"latitud":38.414101,"longitud":-28.339109},
{"id":768,"fecha":"06/15/2017","importe":50.62,"latitud":10.6377926,"longitud":30.3839017},
{"id":769,"fecha":"09/24/2017","importe":67.8,"latitud":56.744985,"longitud":15.9203039},
{"id":770,"fecha":"02/27/2017","importe":67.07,"latitud":-8.152161,"longitud":115.036705},
{"id":771,"fecha":"06/26/2017","importe":18.43,"latitud":27.756647,"longitud":118.035309},
{"id":772,"fecha":"10/19/2017","importe":57.26,"latitud":-23.1036632,"longitud":-46.7285093},
{"id":773,"fecha":"02/01/2017","importe":82.36,"latitud":45.0058742,"longitud":39.06949},
{"id":774,"fecha":"04/20/2017","importe":51.69,"latitud":50.2154468,"longitud":16.2722098},
{"id":775,"fecha":"10/25/2017","importe":59.74,"latitud":38.950239,"longitud":117.406384},
{"id":776,"fecha":"01/27/2017","importe":90.27,"latitud":45.6747796,"longitud":18.5702566},
{"id":777,"fecha":"12/29/2017","importe":67.07,"latitud":32.032275,"longitud":118.449305},
{"id":778,"fecha":"01/18/2017","importe":3.11,"latitud":-14.72796,"longitud":-70.52285},
{"id":779,"fecha":"12/30/2017","importe":8.49,"latitud":43.7454199,"longitud":44.6830668},
{"id":780,"fecha":"08/05/2017","importe":66.58,"latitud":40.7,"longitud":-111.99},
{"id":781,"fecha":"06/20/2017","importe":5.86,"latitud":25.830694,"longitud":114.933546},
{"id":782,"fecha":"12/08/2017","importe":96.76,"latitud":59.35,"longitud":18.5},
{"id":783,"fecha":"09/01/2017","importe":7.06,"latitud":-2.9001285,"longitud":-79.0058965},
{"id":784,"fecha":"01/09/2018","importe":59.75,"latitud":-6.6500292,"longitud":107.7695429},
{"id":785,"fecha":"08/22/2017","importe":30.69,"latitud":32.095838,"longitud":34.952177},
{"id":786,"fecha":"05/18/2017","importe":45.33,"latitud":40.5072039,"longitud":20.9253299},
{"id":787,"fecha":"02/08/2017","importe":91.84,"latitud":-27.112723,"longitud":-109.3496865},
{"id":788,"fecha":"04/04/2017","importe":35.37,"latitud":-24.0860329,"longitud":-46.8640458},
{"id":789,"fecha":"09/14/2017","importe":81.47,"latitud":51.3305246,"longitud":6.7625867},
{"id":790,"fecha":"02/16/2017","importe":81.76,"latitud":5.3847763,"longitud":95.9602371},
{"id":791,"fecha":"06/30/2017","importe":74.21,"latitud":17.1238845,"longitud":-61.8233706},
{"id":792,"fecha":"05/03/2017","importe":33.22,"latitud":7.138166,"longitud":7.6697323},
{"id":793,"fecha":"05/23/2017","importe":69.26,"latitud":40.97465,"longitud":117.943348},
{"id":794,"fecha":"10/10/2017","importe":8.6,"latitud":61.2318649,"longitud":26.1741559},
{"id":795,"fecha":"01/24/2017","importe":53.2,"latitud":38.7492816,"longitud":125.6368861},
{"id":796,"fecha":"03/02/2017","importe":32.28,"latitud":40.7553689,"longitud":-8.6455126},
{"id":797,"fecha":"05/26/2017","importe":67.43,"latitud":45.3639886,"longitud":5.5949365},
{"id":798,"fecha":"08/26/2017","importe":16.91,"latitud":30.4124334,"longitud":-84.2831162},
{"id":799,"fecha":"12/25/2017","importe":35.56,"latitud":50.5374971,"longitud":16.0198605},
{"id":800,"fecha":"07/13/2017","importe":60.24,"latitud":-34.6126135,"longitud":-58.5321306},
{"id":801,"fecha":"02/07/2017","importe":46.56,"latitud":38.640106,"longitud":-9.0560562},
{"id":802,"fecha":"02/13/2017","importe":45.17,"latitud":-22.2297167,"longitud":166.5233079},
{"id":803,"fecha":"06/14/2017","importe":9.96,"latitud":33.8849101,"longitud":-117.9941812},
{"id":804,"fecha":"11/28/2017","importe":15.61,"latitud":48.8902362,"longitud":36.308001},
{"id":805,"fecha":"09/18/2017","importe":99.1,"latitud":48.7359203,"longitud":22.4723243},
{"id":806,"fecha":"02/27/2017","importe":8.23,"latitud":18.8826771,"longitud":-96.935003},
{"id":807,"fecha":"10/04/2017","importe":95.18,"latitud":44.8353965,"longitud":38.8764177},
{"id":808,"fecha":"10/06/2017","importe":69.34,"latitud":44.439233,"longitud":129.500041},
{"id":809,"fecha":"04/04/2017","importe":14.59,"latitud":34.8336386,"longitud":135.5304048},
{"id":810,"fecha":"08/02/2017","importe":17.65,"latitud":40.4159844,"longitud":22.6037501},
{"id":811,"fecha":"01/30/2017","importe":80.2,"latitud":40.4832736,"longitud":44.3852966},
{"id":812,"fecha":"11/02/2017","importe":77.42,"latitud":5.896774,"longitud":118.06182},
{"id":813,"fecha":"05/09/2017","importe":29.79,"latitud":3.2572094,"longitud":-77.2864879},
{"id":814,"fecha":"03/21/2017","importe":26.62,"latitud":59.2691081,"longitud":17.8651957},
{"id":815,"fecha":"02/19/2017","importe":20.45,"latitud":31.1032736,"longitud":114.3515079},
{"id":816,"fecha":"02/17/2017","importe":5.76,"latitud":-33.0516935,"longitud":-71.3906234},
{"id":817,"fecha":"08/18/2017","importe":43.22,"latitud":14.5699334,"longitud":121.0204582},
{"id":818,"fecha":"07/20/2017","importe":22.59,"latitud":55.1536343,"longitud":72.6937323},
{"id":819,"fecha":"04/13/2017","importe":10.81,"latitud":17.0740883,"longitud":104.4490398},
{"id":820,"fecha":"10/17/2017","importe":29.08,"latitud":10.9574128,"longitud":106.8426871},
{"id":821,"fecha":"12/12/2017","importe":19.34,"latitud":39.8726158,"longitud":45.3575191},
{"id":822,"fecha":"10/27/2017","importe":11.61,"latitud":5.2362218,"longitud":96.2283035},
{"id":823,"fecha":"10/04/2017","importe":50.11,"latitud":25.386379,"longitud":114.922922},
{"id":824,"fecha":"02/27/2017","importe":60.63,"latitud":24.8805556,"longitud":102.4752778},
{"id":825,"fecha":"06/11/2017","importe":36.76,"latitud":1.4403744,"longitud":125.1216524},
{"id":826,"fecha":"09/09/2017","importe":11.87,"latitud":21.8628802,"longitud":106.5377839},
{"id":827,"fecha":"06/30/2017","importe":32.01,"latitud":29.5945152,"longitud":70.6008375},
{"id":828,"fecha":"03/30/2017","importe":98.9,"latitud":3.1121428,"longitud":101.6935065},
{"id":829,"fecha":"06/01/2017","importe":40.65,"latitud":-7.6426348,"longitud":112.7032945},
{"id":830,"fecha":"08/13/2017","importe":6.0,"latitud":33.379845,"longitud":115.569092},
{"id":831,"fecha":"01/07/2018","importe":63.01,"latitud":-7.8808775,"longitud":-40.0810267},
{"id":832,"fecha":"06/26/2017","importe":9.05,"latitud":-22.523123,"longitud":-55.7242526},
{"id":833,"fecha":"04/10/2017","importe":33.27,"latitud":39.96,"longitud":-83},
{"id":834,"fecha":"07/15/2017","importe":17.09,"latitud":-41.3336941,"longitud":173.1927874},
{"id":835,"fecha":"11/24/2017","importe":27.34,"latitud":10.132503,"longitud":124.841371},
{"id":836,"fecha":"11/07/2017","importe":47.89,"latitud":50.8177069,"longitud":15.7230035},
{"id":837,"fecha":"04/04/2017","importe":72.12,"latitud":-6.2736138,"longitud":106.6717451},
{"id":838,"fecha":"05/20/2017","importe":18.36,"latitud":41.8399528,"longitud":43.3907569},
{"id":839,"fecha":"07/03/2017","importe":75.79,"latitud":-38.6677187,"longitud":-72.2244406},
{"id":840,"fecha":"02/02/2017","importe":78.63,"latitud":53.9256842,"longitud":51.2577545},
{"id":841,"fecha":"10/15/2017","importe":72.36,"latitud":9.329496,"longitud":125.554433},
{"id":842,"fecha":"05/28/2017","importe":73.49,"latitud":32.0366011,"longitud":35.7288398},
{"id":843,"fecha":"01/25/2017","importe":48.81,"latitud":-14.6737265,"longitud":-39.465738},
{"id":844,"fecha":"01/28/2017","importe":79.47,"latitud":55.1220513,"longitud":37.9590427},
{"id":845,"fecha":"11/01/2017","importe":3.46,"latitud":-37.7758475,"longitud":-67.7134201},
{"id":846,"fecha":"01/13/2017","importe":51.87,"latitud":4.7204604,"longitud":-74.4584245},
{"id":847,"fecha":"07/06/2017","importe":78.07,"latitud":55.1328637,"longitud":40.17768},
{"id":848,"fecha":"06/13/2017","importe":73.33,"latitud":55.6613674,"longitud":37.4429397},
{"id":849,"fecha":"10/20/2017","importe":52.31,"latitud":-25.2005643,"longitud":-56.3978117},
{"id":850,"fecha":"01/26/2017","importe":94.67,"latitud":37.335794,"longitud":116.576092},
{"id":851,"fecha":"07/25/2017","importe":78.09,"latitud":45.5632781,"longitud":13.769491},
{"id":852,"fecha":"09/12/2017","importe":33.23,"latitud":18.7744983,"longitud":98.9989307},
{"id":853,"fecha":"06/19/2017","importe":69.39,"latitud":41.3730301,"longitud":2.116796},
{"id":854,"fecha":"10/06/2017","importe":49.58,"latitud":49.6297207,"longitud":37.6810464},
{"id":855,"fecha":"05/16/2017","importe":73.21,"latitud":26.641315,"longitud":100.222545},
{"id":856,"fecha":"10/20/2017","importe":20.85,"latitud":33.9769138,"longitud":132.7764778},
{"id":857,"fecha":"04/22/2017","importe":37.73,"latitud":33.626149,"longitud":114.69695},
{"id":858,"fecha":"09/14/2017","importe":61.38,"latitud":"-6.7267","longitud":"105.6259"},
{"id":859,"fecha":"06/10/2017","importe":93.01,"latitud":59.8863041,"longitud":29.9085976},
{"id":860,"fecha":"05/06/2017","importe":2.72,"latitud":39.822507,"longitud":109.963338},
{"id":861,"fecha":"04/08/2017","importe":47.21,"latitud":6.856106,"longitud":79.917758},
{"id":862,"fecha":"02/13/2017","importe":7.03,"latitud":27.086662,"longitud":114.36721},
{"id":863,"fecha":"09/17/2017","importe":78.36,"latitud":59.362551,"longitud":18.0343914},
{"id":864,"fecha":"06/27/2017","importe":48.1,"latitud":37.1560675,"longitud":22.0444933},
{"id":865,"fecha":"04/14/2017","importe":42.99,"latitud":46.8260183,"longitud":-2.1318548},
{"id":866,"fecha":"10/24/2017","importe":26.57,"latitud":62.3316244,"longitud":27.7461577},
{"id":867,"fecha":"11/30/2017","importe":29.35,"latitud":-14.1462865,"longitud":-71.4603621},
{"id":868,"fecha":"09/24/2017","importe":84.23,"latitud":-21.8421051,"longitud":-47.4710798},
{"id":869,"fecha":"07/03/2017","importe":80.84,"latitud":59.3528754,"longitud":24.0551606},
{"id":870,"fecha":"07/19/2017","importe":46.61,"latitud":52.8886634,"longitud":18.1227285},
{"id":871,"fecha":"08/02/2017","importe":18.23,"latitud":25.489999,"longitud":103.796167},
{"id":872,"fecha":"12/05/2017","importe":56.17,"latitud":35.0107648,"longitud":69.1625896},
{"id":873,"fecha":"02/08/2017","importe":72.51,"latitud":46.688163,"longitud":83.406926},
{"id":874,"fecha":"06/18/2017","importe":39.74,"latitud":-11.9187621,"longitud":-75.3149796},
{"id":875,"fecha":"08/26/2017","importe":65.06,"latitud":55.3605576,"longitud":52.0111855},
{"id":876,"fecha":"12/09/2017","importe":43.12,"latitud":25.556716,"longitud":110.016031},
{"id":877,"fecha":"05/08/2017","importe":94.7,"latitud":29.33903,"longitud":104.778442},
{"id":878,"fecha":"11/21/2017","importe":67.52,"latitud":49.6101863,"longitud":14.9063338},
{"id":879,"fecha":"10/02/2017","importe":60.6,"latitud":-5.85,"longitud":105.75},
{"id":880,"fecha":"08/24/2017","importe":10.71,"latitud":6.7156982,"longitud":-3.4801349},
{"id":881,"fecha":"02/01/2017","importe":52.64,"latitud":-7.6377209,"longitud":110.3519867},
{"id":882,"fecha":"12/06/2017","importe":36.35,"latitud":38.083437,"longitud":116.578368},
{"id":883,"fecha":"03/27/2017","importe":69.46,"latitud":14.2508238,"longitud":121.1075051},
{"id":884,"fecha":"09/17/2017","importe":80.25,"latitud":55.5292,"longitud":42.2003001},
{"id":885,"fecha":"12/01/2017","importe":99.33,"latitud":-1.9023377,"longitud":11.9062829},
{"id":886,"fecha":"05/10/2017","importe":54.95,"latitud":49.0871049,"longitud":0.5957159},
{"id":887,"fecha":"07/30/2017","importe":46.9,"latitud":-3.4233267,"longitud":130.2271243},
{"id":888,"fecha":"11/17/2017","importe":36.59,"latitud":-7.6095457,"longitud":110.9655659},
{"id":889,"fecha":"01/06/2018","importe":47.89,"latitud":-8.4112772,"longitud":114.1736608},
{"id":890,"fecha":"04/22/2017","importe":93.95,"latitud":27.4456115,"longitud":-99.5520682},
{"id":891,"fecha":"09/29/2017","importe":86.2,"latitud":49.794097,"longitud":12.5783985},
{"id":892,"fecha":"09/26/2017","importe":69.37,"latitud":-7.4289773,"longitud":109.1434108},
{"id":893,"fecha":"11/10/2017","importe":4.23,"latitud":-7.0341681,"longitud":108.3207992},
{"id":894,"fecha":"05/11/2017","importe":18.97,"latitud":-32.9395437,"longitud":-60.6949244},
{"id":895,"fecha":"03/31/2017","importe":96.58,"latitud":24.2629574,"longitud":97.2383178},
{"id":896,"fecha":"10/06/2017","importe":73.17,"latitud":26.4486465,"longitud":68.3132182},
{"id":897,"fecha":"11/07/2017","importe":81.26,"latitud":-15.24381,"longitud":-70.265129},
{"id":898,"fecha":"11/24/2017","importe":83.12,"latitud":4.2292379,"longitud":126.798485},
{"id":899,"fecha":"06/17/2017","importe":12.48,"latitud":24.765091,"longitud":110.506663},
{"id":900,"fecha":"05/31/2017","importe":50.42,"latitud":"34.28665","longitud":"70.37247"},
{"id":901,"fecha":"06/09/2017","importe":48.73,"latitud":51.8433045,"longitud":15.6903444},
{"id":902,"fecha":"09/05/2017","importe":82.51,"latitud":57.0128795,"longitud":35.9200308},
{"id":903,"fecha":"08/25/2017","importe":78.4,"latitud":9.9256779,"longitud":13.9434035},
{"id":904,"fecha":"05/31/2017","importe":35.17,"latitud":-11.4749128,"longitud":43.394005},
{"id":905,"fecha":"02/10/2017","importe":82.47,"latitud":40.4304536,"longitud":-3.7105118},
{"id":906,"fecha":"02/14/2017","importe":30.06,"latitud":7.619032,"longitud":125.627616},
{"id":907,"fecha":"04/19/2017","importe":9.16,"latitud":-6.6772938,"longitud":111.540868},
{"id":908,"fecha":"04/26/2017","importe":50.57,"latitud":32.7423216,"longitud":131.178836},
{"id":909,"fecha":"08/17/2017","importe":2.72,"latitud":"36.99532","longitud":"59.76472"},
{"id":910,"fecha":"07/10/2017","importe":95.65,"latitud":69.692947,"longitud":170.399612},
{"id":911,"fecha":"01/31/2017","importe":67.16,"latitud":35.9613724,"longitud":50.6845648},
{"id":912,"fecha":"11/26/2017","importe":56.46,"latitud":61.228665,"longitud":14.040054},
{"id":913,"fecha":"10/13/2017","importe":99.45,"latitud":-14.3322488,"longitud":-56.6513853},
{"id":914,"fecha":"02/16/2017","importe":66.13,"latitud":30.677233,"longitud":121.015142},
{"id":915,"fecha":"02/08/2017","importe":76.87,"latitud":-10.1602312,"longitud":123.5937933},
{"id":916,"fecha":"06/02/2017","importe":78.67,"latitud":-6.5792655,"longitud":106.2698669},
{"id":917,"fecha":"04/19/2017","importe":56.56,"latitud":-0.7911388,"longitud":29.924903},
{"id":918,"fecha":"10/22/2017","importe":19.15,"latitud":-7.5242554,"longitud":108.9145675},
{"id":919,"fecha":"06/25/2017","importe":22.4,"latitud":6.9097671,"longitud":0.6298922},
{"id":920,"fecha":"03/07/2017","importe":63.96,"latitud":34.1228075,"longitud":134.5990156},
{"id":921,"fecha":"04/03/2017","importe":82.59,"latitud":-37.9361202,"longitud":-57.5552203},
{"id":922,"fecha":"10/12/2017","importe":5.4,"latitud":34.276784,"longitud":133.193015},
{"id":923,"fecha":"11/28/2017","importe":85.27,"latitud":"45.06685","longitud":"-64.16544"},
{"id":924,"fecha":"12/04/2017","importe":39.54,"latitud":"41.3525","longitud":"79.46861"},
{"id":925,"fecha":"06/07/2017","importe":1.86,"latitud":41.1283966,"longitud":25.1850002},
{"id":926,"fecha":"01/29/2017","importe":31.12,"latitud":-13.2513786,"longitud":-43.4112394},
{"id":927,"fecha":"04/04/2017","importe":56.13,"latitud":-6.2688922,"longitud":107.5442802},
{"id":928,"fecha":"04/13/2017","importe":63.35,"latitud":69.63186,"longitud":18.9221},
{"id":929,"fecha":"01/18/2017","importe":11.4,"latitud":56.031038,"longitud":47.2957582},
{"id":930,"fecha":"03/14/2017","importe":72.66,"latitud":10.9120328,"longitud":124.7452068},
{"id":931,"fecha":"03/29/2017","importe":2.69,"latitud":"49.65841","longitud":"21.97678"},
{"id":932,"fecha":"02/14/2017","importe":42.74,"latitud":"-8.0412","longitud":"111.6694"},
{"id":933,"fecha":"03/18/2017","importe":99.7,"latitud":46.4214581,"longitud":33.1462635},
{"id":934,"fecha":"06/28/2017","importe":6.71,"latitud":31.1393795,"longitud":-97.8047404},
{"id":935,"fecha":"10/29/2017","importe":14.03,"latitud":38.9080786,"longitud":-77.0406147},
{"id":936,"fecha":"07/14/2017","importe":96.04,"latitud":44.190357,"longitud":0.63968},
{"id":937,"fecha":"08/22/2017","importe":72.89,"latitud":45.70734,"longitud":5.534063},
{"id":938,"fecha":"11/24/2017","importe":90.76,"latitud":38.8884333,"longitud":45.0304001},
{"id":939,"fecha":"11/09/2017","importe":95.99,"latitud":-15.133391,"longitud":23.1530897},
{"id":940,"fecha":"07/26/2017","importe":13.78,"latitud":50.4727367,"longitud":15.3845968},
{"id":941,"fecha":"12/18/2017","importe":52.91,"latitud":39.8699419,"longitud":-8.9175063},
{"id":942,"fecha":"05/05/2017","importe":77.68,"latitud":65.723731,"longitud":-17.354349},
{"id":943,"fecha":"02/27/2017","importe":37.98,"latitud":54.652617,"longitud":18.4293828},
{"id":944,"fecha":"06/13/2017","importe":20.51,"latitud":"7.81194","longitud":"124.85444"},
{"id":945,"fecha":"02/23/2017","importe":85.69,"latitud":52.6029163,"longitud":41.4669909},
{"id":946,"fecha":"07/31/2017","importe":40.01,"latitud":39.930195,"longitud":114.746256},
{"id":947,"fecha":"12/03/2017","importe":80.55,"latitud":25.242158,"longitud":117.326355},
{"id":948,"fecha":"03/20/2017","importe":92.42,"latitud":1.8786869,"longitud":9.9716585},
{"id":949,"fecha":"03/18/2017","importe":85.16,"latitud":53.032343,"longitud":20.7180021},
{"id":950,"fecha":"05/29/2017","importe":35.14,"latitud":9.8411782,"longitud":123.9121342},
{"id":951,"fecha":"06/26/2017","importe":3.72,"latitud":3.22059,"longitud":-76.415465},
{"id":952,"fecha":"02/05/2017","importe":60.73,"latitud":9.0144539,"longitud":37.4494636},
{"id":953,"fecha":"03/13/2017","importe":49.5,"latitud":1.5179989,"longitud":103.671179},
{"id":954,"fecha":"02/15/2017","importe":8.2,"latitud":14.7292218,"longitud":121.051001},
{"id":955,"fecha":"10/24/2017","importe":75.97,"latitud":27.5002269,"longitud":90.5080634},
{"id":956,"fecha":"07/02/2017","importe":7.54,"latitud":36.309203,"longitud":113.110378},
{"id":957,"fecha":"08/05/2017","importe":20.34,"latitud":36.757714,"longitud":-4.2429565},
{"id":958,"fecha":"07/07/2017","importe":10.95,"latitud":38.5795991,"longitud":-8.9474304},
{"id":959,"fecha":"05/12/2017","importe":89.5,"latitud":13.8565034,"longitud":109.1642208},
{"id":960,"fecha":"02/02/2017","importe":88.04,"latitud":50.6250765,"longitud":14.1554021},
{"id":961,"fecha":"05/19/2017","importe":61.82,"latitud":29.208918,"longitud":119.460526},
{"id":962,"fecha":"07/22/2017","importe":21.39,"latitud":41.646065,"longitud":-8.4826853},
{"id":963,"fecha":"03/28/2017","importe":21.33,"latitud":56.9934009,"longitud":24.3022789},
{"id":964,"fecha":"11/27/2017","importe":48.15,"latitud":28.650072,"longitud":121.261886},
{"id":965,"fecha":"01/04/2018","importe":2.28,"latitud":39.467685,"longitud":75.99379},
{"id":966,"fecha":"03/24/2017","importe":82.63,"latitud":37.083896,"longitud":55.1706992},
{"id":967,"fecha":"12/05/2017","importe":98.51,"latitud":9.1742107,"longitud":-79.5687728},
{"id":968,"fecha":"05/21/2017","importe":58.43,"latitud":-8.2735418,"longitud":114.8864193},
{"id":969,"fecha":"09/28/2017","importe":55.94,"latitud":52.3716937,"longitud":4.8925949},
{"id":970,"fecha":"02/03/2017","importe":65.99,"latitud":19.3579802,"longitud":-99.0806088},
{"id":971,"fecha":"03/30/2017","importe":95.18,"latitud":44.441584,"longitud":126.4510829},
{"id":972,"fecha":"08/02/2017","importe":54.32,"latitud":-7.0258756,"longitud":107.5176489},
{"id":973,"fecha":"08/16/2017","importe":67.41,"latitud":-7.2524177,"longitud":112.746823},
{"id":974,"fecha":"05/16/2017","importe":9.47,"latitud":50.409026,"longitud":19.932785},
{"id":975,"fecha":"06/21/2017","importe":55.59,"latitud":30.164679,"longitud":120.161441},
{"id":976,"fecha":"05/19/2017","importe":63.74,"latitud":-7.3790406,"longitud":107.3198424},
{"id":977,"fecha":"01/03/2018","importe":97.08,"latitud":27.198639,"longitud":54.3666012},
{"id":978,"fecha":"11/04/2017","importe":3.15,"latitud":41.2684021,"longitud":-8.0777054},
{"id":979,"fecha":"08/05/2017","importe":6.7,"latitud":-7.0031703,"longitud":112.545369},
{"id":980,"fecha":"03/06/2017","importe":68.66,"latitud":57.6809089,"longitud":12.0018674},
{"id":981,"fecha":"02/02/2017","importe":63.59,"latitud":10.0835154,"longitud":-83.342893},
{"id":982,"fecha":"12/02/2017","importe":70.83,"latitud":3.8353843,"longitud":103.2901816},
{"id":983,"fecha":"12/27/2017","importe":75.08,"latitud":-7.2119433,"longitud":108.1591732},
{"id":984,"fecha":"04/07/2017","importe":58.29,"latitud":-6.9592076,"longitud":108.5244179},
{"id":985,"fecha":"03/01/2017","importe":18.28,"latitud":50.1552166,"longitud":20.397498},
{"id":986,"fecha":"03/07/2017","importe":67.22,"latitud":48.9563647,"longitud":17.1329667},
{"id":987,"fecha":"07/16/2017","importe":38.41,"latitud":"43.2","longitud":"82.63333"},
{"id":988,"fecha":"04/24/2017","importe":2.53,"latitud":22.0832638,"longitud":102.5757028},
{"id":989,"fecha":"02/12/2017","importe":63.48,"latitud":51.3100484,"longitud":156.9842018},
{"id":990,"fecha":"08/08/2017","importe":3.24,"latitud":49.3909134,"longitud":30.1988199},
{"id":991,"fecha":"12/18/2017","importe":9.08,"latitud":40.7582228,"longitud":-73.9704871},
{"id":992,"fecha":"01/31/2017","importe":6.74,"latitud":29.287939,"longitud":121.429477},
{"id":993,"fecha":"07/04/2017","importe":92.77,"latitud":52.0592063,"longitud":20.4515916},
{"id":994,"fecha":"08/07/2017","importe":98.16,"latitud":49.1931313,"longitud":-0.3907558},
{"id":995,"fecha":"04/27/2017","importe":27.56,"latitud":61.2318649,"longitud":26.1741559},
{"id":996,"fecha":"12/04/2017","importe":33.44,"latitud":14.6004472,"longitud":121.030802},
{"id":997,"fecha":"09/04/2017","importe":30.26,"latitud":55.7213879,"longitud":37.40292},
{"id":998,"fecha":"08/01/2017","importe":54.92,"latitud":-5.725856,"longitud":39.2985684},
{"id":999,"fecha":"04/24/2017","importe":32.09,"latitud":38.6002411,"longitud":141.2405508},
{"id":1000,"fecha":"12/30/2017","importe":14.81,"latitud":-34.1979128,"longitud":-53.8617544}]